{
  "components": [
    {
      "data": {
        "checksum": "1bf4a84c9b295f1a4227e5d97c121e03ae3b52a37eec8df659535309c89b0fc2", 
        "contents_checksum": "b84ed7725d1dca9cdb3d9a0f81e4829048e9b0262f4ae4a94f0fe19124a7dc48", 
        "size": 675, 
        "source": "https://dl.google.com/dl/cloudsdk/channels/rapid/components/google-cloud-sdk-alpha-20170324133216.tar.gz", 
        "type": "tar"
      }, 
      "dependencies": [
        "core"
      ], 
      "details": {
        "description": "Alpha version of gcloud commands.", 
        "display_name": "gcloud Alpha Commands"
      }, 
      "id": "alpha", 
      "is_configuration": false, 
      "is_hidden": false, 
      "is_required": false, 
      "platform": {}, 
      "version": {
        "build_number": 20170324133216, 
        "version_string": "2017.03.24"
      }
    }, 
    {
      "dependencies": [
        "core", 
        "app-engine-python", 
        "app-engine-go-linux-x86", 
        "app-engine-go-linux-x86_64", 
        "app-engine-go-darwin-x86", 
        "app-engine-go-darwin-x86_64", 
        "app-engine-go-windows-x86", 
        "app-engine-go-windows-x86_64"
      ], 
      "details": {
        "description": "Provides the tools to develop Go applications on App Engine.", 
        "display_name": "App Engine Go Extensions"
      }, 
      "id": "app-engine-go", 
      "is_configuration": false, 
      "is_hidden": false, 
      "is_required": false, 
      "platform": {
        "architectures": [
          "x86", 
          "x86_64"
        ], 
        "operating_systems": [
          "LINUX", 
          "MACOSX", 
          "WINDOWS"
        ]
      }, 
      "version": {
        "build_number": 0, 
        "version_string": ""
      }
    }, 
    {
      "data": {
        "checksum": "75c178e9829c8337df39773e6afc6b6373e7f6b6af4cf2c489527f9170a00064", 
        "contents_checksum": "e92fd97c7599175d32ee359ff64020ee12767c427e9f570bb25647172d3c473d", 
        "size": 48173866, 
        "source": "https://dl.google.com/dl/cloudsdk/channels/rapid/components/google-cloud-sdk-app-engine-go-darwin-x86-20170324133216.tar.gz", 
        "type": "tar"
      }, 
      "dependencies": [
        "app-engine-go"
      ], 
      "details": {
        "description": "Provides the tools to develop Go applications on App Engine. (MacOS, x86)", 
        "display_name": "App Engine Go (MacOS, x86)"
      }, 
      "id": "app-engine-go-darwin-x86", 
      "is_configuration": false, 
      "is_hidden": true, 
      "is_required": false, 
      "platform": {
        "architectures": [
          "x86"
        ], 
        "operating_systems": [
          "MACOSX"
        ]
      }, 
      "version": {
        "build_number": 20170324133216, 
        "version_string": "1.9.50"
      }
    }, 
    {
      "data": {
        "checksum": "cfed3b35e4d26fbf24123099b45cfa2c1e9fba882fb01d49305c4733edd1d87c", 
        "contents_checksum": "ec5886519e3caaf94c0c39763c589021fca799a752e3ffbb87db327695bdd183", 
        "size": 50009008, 
        "source": "https://dl.google.com/dl/cloudsdk/channels/rapid/components/google-cloud-sdk-app-engine-go-darwin-x86_64-20170324133216.tar.gz", 
        "type": "tar"
      }, 
      "dependencies": [
        "app-engine-go"
      ], 
      "details": {
        "description": "Provides the tools to develop Go applications on App Engine. (MacOS, x86_64)", 
        "display_name": "App Engine Go (MacOS, x86_64)"
      }, 
      "id": "app-engine-go-darwin-x86_64", 
      "is_configuration": false, 
      "is_hidden": true, 
      "is_required": false, 
      "platform": {
        "architectures": [
          "x86_64"
        ], 
        "operating_systems": [
          "MACOSX"
        ]
      }, 
      "version": {
        "build_number": 20170324133216, 
        "version_string": "1.9.50"
      }
    }, 
    {
      "data": {
        "checksum": "15a11f6ed6c75aa23f26b3d7ae2fc11baa00431cde3cd8b8a6dd7f99db135d67", 
        "contents_checksum": "d5abf903972151b3d6901839abddb626c887934eab956f8fae615ac263e51e02", 
        "size": 48322812, 
        "source": "https://dl.google.com/dl/cloudsdk/channels/rapid/components/google-cloud-sdk-app-engine-go-linux-x86-20170324133216.tar.gz", 
        "type": "tar"
      }, 
      "dependencies": [
        "app-engine-go"
      ], 
      "details": {
        "description": "Provides the tools to develop Go applications on App Engine. (Linux, x86)", 
        "display_name": "App Engine Go (Linux, x86)"
      }, 
      "id": "app-engine-go-linux-x86", 
      "is_configuration": false, 
      "is_hidden": true, 
      "is_required": false, 
      "platform": {
        "architectures": [
          "x86"
        ], 
        "operating_systems": [
          "LINUX"
        ]
      }, 
      "version": {
        "build_number": 20170324133216, 
        "version_string": "1.9.50"
      }
    }, 
    {
      "data": {
        "checksum": "7afd375e0ab7b1de233acf3539137ed14da15411c2256b54e10c247aa72a9176", 
        "contents_checksum": "39f3d472d600ae8172811718cb1d0c89b8e4bebaa1f1e076086df8335d01c448", 
        "size": 50205246, 
        "source": "https://dl.google.com/dl/cloudsdk/channels/rapid/components/google-cloud-sdk-app-engine-go-linux-x86_64-20170324133216.tar.gz", 
        "type": "tar"
      }, 
      "dependencies": [
        "app-engine-go"
      ], 
      "details": {
        "description": "Provides the tools to develop Go applications on App Engine. (Linux, x86_64)", 
        "display_name": "App Engine Go (Linux, x86_64)"
      }, 
      "id": "app-engine-go-linux-x86_64", 
      "is_configuration": false, 
      "is_hidden": true, 
      "is_required": false, 
      "platform": {
        "architectures": [
          "x86_64"
        ], 
        "operating_systems": [
          "LINUX"
        ]
      }, 
      "version": {
        "build_number": 20170324133216, 
        "version_string": "1.9.50"
      }
    }, 
    {
      "data": {
        "checksum": "77a97ef91161adf60801d03fd2f9516e7ecb48e590d156e4df2bedd69a50b509", 
        "contents_checksum": "e0261c03b7707ad02191f14ed7729635d2eca28c8240cbf91983bc9bdb558e97", 
        "size": 48792630, 
        "source": "https://dl.google.com/dl/cloudsdk/channels/rapid/components/google-cloud-sdk-app-engine-go-windows-x86-20170324133216.tar.gz", 
        "type": "tar"
      }, 
      "dependencies": [
        "app-engine-go"
      ], 
      "details": {
        "description": "Provides the tools to develop Go applications on App Engine. (Windows, x86)", 
        "display_name": "App Engine Go (Windows, x86)"
      }, 
      "id": "app-engine-go-windows-x86", 
      "is_configuration": false, 
      "is_hidden": true, 
      "is_required": false, 
      "platform": {
        "architectures": [
          "x86"
        ], 
        "operating_systems": [
          "WINDOWS"
        ]
      }, 
      "version": {
        "build_number": 20170324133216, 
        "version_string": "1.9.50"
      }
    }, 
    {
      "data": {
        "checksum": "f5673b2ea72b8796f7dbdc516659ffa5c90b62eb890756494aa7c05935391568", 
        "contents_checksum": "cd5c05f2413068410f9cddbf516bba4012e52b5662a4dde79c78dffa94064b26", 
        "size": 50753076, 
        "source": "https://dl.google.com/dl/cloudsdk/channels/rapid/components/google-cloud-sdk-app-engine-go-windows-x86_64-20170324133216.tar.gz", 
        "type": "tar"
      }, 
      "dependencies": [
        "app-engine-go"
      ], 
      "details": {
        "description": "Provides the tools to develop Go applications on App Engine. (Windows, x86_64)", 
        "display_name": "App Engine Go (Windows, x86_64)"
      }, 
      "id": "app-engine-go-windows-x86_64", 
      "is_configuration": false, 
      "is_hidden": true, 
      "is_required": false, 
      "platform": {
        "architectures": [
          "x86_64"
        ], 
        "operating_systems": [
          "WINDOWS"
        ]
      }, 
      "version": {
        "build_number": 20170324133216, 
        "version_string": "1.9.50"
      }
    }, 
    {
      "dependencies": [
        "core", 
        "app-engine-grpc-linux-x86_64", 
        "app-engine-grpc-darwin-x86_64", 
        "app-engine-grpc-windows-x86_64"
      ], 
      "details": {
        "description": "Provides the gRPC python library for app engine.", 
        "display_name": "gRPC python library"
      }, 
      "id": "app-engine-grpc", 
      "is_configuration": false, 
      "is_hidden": true, 
      "is_required": false, 
      "platform": {
        "architectures": [
          "x86", 
          "x86_64"
        ], 
        "operating_systems": [
          "LINUX", 
          "MACOSX", 
          "WINDOWS"
        ]
      }, 
      "version": {
        "build_number": 0, 
        "version_string": ""
      }
    }, 
    {
      "data": {
        "checksum": "a00d505742f50521c76c6cee839fe0c4c3ff767350095970fe6c4142c809c8d3", 
        "contents_checksum": "4492315211c6ab7a001ea910655022a64651ddd0802e85b16fbda776f6b0716d", 
        "size": 3570882, 
        "source": "https://dl.google.com/dl/cloudsdk/channels/rapid/components/google-cloud-sdk-app-engine-grpc-darwin-x86_64-20170324133216.tar.gz", 
        "type": "tar"
      }, 
      "dependencies": [
        "app-engine-grpc"
      ], 
      "details": {
        "description": "Provides the gRPC python library for app engine. (Mac OSX, x86_64)", 
        "display_name": "gRPC python library (Mac OSX, x86_64)"
      }, 
      "id": "app-engine-grpc-darwin-x86_64", 
      "is_configuration": false, 
      "is_hidden": true, 
      "is_required": false, 
      "platform": {
        "architectures": [
          "x86_64"
        ], 
        "operating_systems": [
          "MACOSX"
        ]
      }, 
      "version": {
        "build_number": 20170324133216, 
        "version_string": "1.0.0"
      }
    }, 
    {
      "data": {
        "checksum": "feae198a9330705b903ee1cf11c22a3f35b96a6731ae86a2ad9d924d798d02cd", 
        "contents_checksum": "828261d65f230a08880a36cfb0851f50b30a1de30c1040a62b4c5a6976d647a9", 
        "size": 6142036, 
        "source": "https://dl.google.com/dl/cloudsdk/channels/rapid/components/google-cloud-sdk-app-engine-grpc-linux-x86_64-20170324133216.tar.gz", 
        "type": "tar"
      }, 
      "dependencies": [
        "app-engine-grpc"
      ], 
      "details": {
        "description": "Provides the gRPC python library for app engine. (Linux, x86_64)", 
        "display_name": "gRPC python library (linux, x86_64)"
      }, 
      "id": "app-engine-grpc-linux-x86_64", 
      "is_configuration": false, 
      "is_hidden": true, 
      "is_required": false, 
      "platform": {
        "architectures": [
          "x86_64"
        ], 
        "operating_systems": [
          "LINUX"
        ]
      }, 
      "version": {
        "build_number": 20170324133216, 
        "version_string": "1.0.0"
      }
    }, 
    {
      "data": {
        "checksum": "b3dff2f2b21dbb19dd8b546ece0836d016356dd620c4419fdc1ba78fef78b083", 
        "contents_checksum": "610a4e290c5d67a064b28a40efd33ad17ca813c0544d6d4ee30776644199a210", 
        "size": 2485147, 
        "source": "https://dl.google.com/dl/cloudsdk/channels/rapid/components/google-cloud-sdk-app-engine-grpc-windows-x86_64-20170324133216.tar.gz", 
        "type": "tar"
      }, 
      "dependencies": [
        "app-engine-grpc"
      ], 
      "details": {
        "description": "Provides the gRPC python library for app engine. (Windows, x86_64)", 
        "display_name": "gRPC python library (Windows, x86_64)"
      }, 
      "id": "app-engine-grpc-windows-x86_64", 
      "is_configuration": false, 
      "is_hidden": true, 
      "is_required": false, 
      "platform": {
        "architectures": [
          "x86_64"
        ], 
        "operating_systems": [
          "WINDOWS"
        ]
      }, 
      "version": {
        "build_number": 20170324133216, 
        "version_string": "1.0.0"
      }
    }, 
    {
      "data": {
        "checksum": "89331b47a7d4ea2db2cff78425448705a74b2f3692ca5bd39e72fd3142c037fe", 
        "contents_checksum": "d38b7d35162adcd473c977fa2049914613df9581e937d43885691bff8e5bb4d2", 
        "size": 134870182, 
        "source": "https://dl.google.com/dl/cloudsdk/channels/rapid/components/google-cloud-sdk-app-engine-java-20170407123654.tar.gz", 
        "type": "tar"
      }, 
      "dependencies": [
        "core", 
        "app-engine-python"
      ], 
      "details": {
        "description": "Provides the tools required to develop Java applications using gcloud.", 
        "display_name": "gcloud app Java Extensions"
      }, 
      "id": "app-engine-java", 
      "is_configuration": false, 
      "is_hidden": false, 
      "is_required": false, 
      "platform": {}, 
      "version": {
        "build_number": 20170407123654, 
        "version_string": "1.9.51"
      }
    }, 
    {
      "dependencies": [
        "core", 
        "app-engine-python", 
        "app-engine-php-windows", 
        "app-engine-php-darwin"
      ], 
      "details": {
        "description": "Provides the PHP runtimes for the dev_appserver.", 
        "display_name": "gcloud app PHP Extensions"
      }, 
      "id": "app-engine-php", 
      "is_configuration": false, 
      "is_hidden": "true", 
      "is_required": false, 
      "platform": {}, 
      "version": {
        "build_number": 0, 
        "version_string": " "
      }
    }, 
    {
      "data": {
        "checksum": "fc286f52f84e8ea73432771b62a36a17ef7af18673b8adc3e421ee39800904cf", 
        "contents_checksum": "6d5f20b4d38c2a145e9d3a824c75389b27bbd6018f254a5160f37ce7d6fa46be", 
        "size": 22986660, 
        "source": "https://dl.google.com/dl/cloudsdk/channels/rapid/components/google-cloud-sdk-app-engine-php-darwin-20170324133216.tar.gz", 
        "type": "tar"
      }, 
      "dependencies": [
        "core", 
        "app-engine-php"
      ], 
      "details": {
        "description": "Provides the PHP runtimes for the dev_appserver.", 
        "display_name": "gcloud app PHP Extensions (Mac OS X)"
      }, 
      "id": "app-engine-php-darwin", 
      "is_configuration": false, 
      "is_hidden": false, 
      "is_required": false, 
      "platform": {
        "operating_systems": [
          "MACOSX"
        ]
      }, 
      "version": {
        "build_number": 20170324133216, 
        "version_string": "2017.03.24"
      }
    }, 
    {
      "data": {
        "checksum": "9c8e279c3b9423ae3dac44d67bf1c41fdcfd5c8f63824fa8b40d7dca8583d527", 
        "contents_checksum": "0693e8464f197e00ee09d5daa45fc177cd46e6de92e3d22387b887a54bd8484d", 
        "size": 20073626, 
        "source": "https://dl.google.com/dl/cloudsdk/channels/rapid/components/google-cloud-sdk-app-engine-php-windows-20170324133216.tar.gz", 
        "type": "tar"
      }, 
      "dependencies": [
        "core", 
        "app-engine-php"
      ], 
      "details": {
        "description": "Provides the PHP runtimes for the dev_appserver.", 
        "display_name": "gcloud app PHP Extensions (Windows)"
      }, 
      "id": "app-engine-php-windows", 
      "is_configuration": false, 
      "is_hidden": false, 
      "is_required": false, 
      "platform": {
        "operating_systems": [
          "WINDOWS", 
          "CYGWIN", 
          "MSYS"
        ]
      }, 
      "version": {
        "build_number": 20170324133216, 
        "version_string": "2017.03.24"
      }
    }, 
    {
      "data": {
        "checksum": "7ceedbe458b3fdee936c3a4449a35842fa5a9dc2631b72fdcedd2b824d08e357", 
        "contents_checksum": "4e13fd787a9f9bd4e8ec5befa4a94e36d8c361ef8caf1c9127e4c259fd106acc", 
        "size": 6346152, 
        "source": "https://dl.google.com/dl/cloudsdk/channels/rapid/components/google-cloud-sdk-app-engine-python-20170424073254.tar.gz", 
        "type": "tar"
      }, 
      "dependencies": [
        "core"
      ], 
      "details": {
        "description": "Provides the tools required to develop Python and PHP applications using gcloud.", 
        "display_name": "gcloud app Python Extensions"
      }, 
      "id": "app-engine-python", 
      "is_configuration": false, 
      "is_hidden": false, 
      "is_required": false, 
      "platform": {}, 
      "version": {
        "build_number": 20170424073254, 
        "version_string": "1.9.52"
      }
    }, 
    {
      "data": {
        "checksum": "a3367f1d10a2c2d1cf07ff60ec806eaabd6a1ae62cd19d8174fe33af85090111", 
        "contents_checksum": "e04a0dcc9c2d368732216d8e315b741308ff2e7253d21446765a43e62690a0a4", 
        "size": 24694692, 
        "source": "https://dl.google.com/dl/cloudsdk/channels/rapid/components/google-cloud-sdk-app-engine-python-extras-20170324133216.tar.gz", 
        "type": "tar"
      }, 
      "dependencies": [
        "core", 
        "app-engine-python"
      ], 
      "details": {
        "description": "Extra libraries for the App Engine Python Extentions.", 
        "display_name": "gcloud app Python Extensions (Extra Libraries)"
      }, 
      "id": "app-engine-python-extras", 
      "is_configuration": false, 
      "is_hidden": true, 
      "is_required": false, 
      "platform": {}, 
      "version": {
        "build_number": 20170324133216, 
        "version_string": "1.9.51"
      }
    }, 
    {
      "data": {
        "checksum": "4dedbeed96f62f93006a2ee96664ff27cf11d36c651e1111278b6ed7ffcb0efb", 
        "contents_checksum": "9eabe4f17045dd0b084361c1ca232348dd1d8647a5417b6bc87c7487b157fb1a", 
        "size": 674, 
        "source": "https://dl.google.com/dl/cloudsdk/channels/rapid/components/google-cloud-sdk-beta-20170324133216.tar.gz", 
        "type": "tar"
      }, 
      "dependencies": [
        "core"
      ], 
      "details": {
        "description": "Beta version of gcloud commands.", 
        "display_name": "gcloud Beta Commands"
      }, 
      "id": "beta", 
      "is_configuration": false, 
      "is_hidden": false, 
      "is_required": false, 
      "platform": {}, 
      "version": {
        "build_number": 20170324133216, 
        "version_string": "2017.03.24"
      }
    }, 
    {
      "dependencies": [
        "core", 
        "bigtable-linux-x86", 
        "bigtable-linux-x86_64", 
        "bigtable-darwin-x86", 
        "bigtable-darwin-x86_64"
      ], 
      "details": {
        "description": "Provides a tool for local Cloud Bigtable emulation.", 
        "display_name": "Cloud Bigtable emulator"
      }, 
      "id": "bigtable", 
      "is_configuration": false, 
      "is_hidden": true, 
      "is_required": false, 
      "platform": {}, 
      "version": {
        "build_number": 0, 
        "version_string": ""
      }
    }, 
    {
      "data": {
        "checksum": "8df5c2d9bd23bc19300f5fe674174f475fd8d532238f75eb4c0caf85350e2347", 
        "contents_checksum": "0612c70b0157a0ed0c1b3fbf5fd6a484b3488b032096f316d5d3372740d7a238", 
        "size": 3304633, 
        "source": "https://dl.google.com/dl/cloudsdk/channels/rapid/components/google-cloud-sdk-bigtable-darwin-x86-20170324133216.tar.gz", 
        "type": "tar"
      }, 
      "dependencies": [
        "core"
      ], 
      "details": {
        "description": "Provides a tool for local Cloud Bigtable emulation.", 
        "display_name": "Cloud Bigtable emulator (MAC, x86)"
      }, 
      "id": "bigtable-darwin-x86", 
      "is_configuration": false, 
      "is_hidden": true, 
      "is_required": false, 
      "platform": {
        "architectures": [
          "x86"
        ], 
        "operating_systems": [
          "MACOSX"
        ]
      }, 
      "version": {
        "build_number": 20170324133216, 
        "version_string": "2017.03.24"
      }
    }, 
    {
      "data": {
        "checksum": "60f6937557cacb2a74478f98995535051ea06312672d92d843c50a52e86282cb", 
        "contents_checksum": "69b01e7bd790abc97e74c674abd28a692dfb6d2a1948176f93415a01f4334ea6", 
        "size": 3503467, 
        "source": "https://dl.google.com/dl/cloudsdk/channels/rapid/components/google-cloud-sdk-bigtable-darwin-x86_64-20170324133216.tar.gz", 
        "type": "tar"
      }, 
      "dependencies": [
        "core"
      ], 
      "details": {
        "description": "Provides a tool for local Cloud Bigtable emulation.", 
        "display_name": "Cloud Bigtable emulator (MAC, x86_64)"
      }, 
      "id": "bigtable-darwin-x86_64", 
      "is_configuration": false, 
      "is_hidden": true, 
      "is_required": false, 
      "platform": {
        "architectures": [
          "x86_64"
        ], 
        "operating_systems": [
          "MACOSX"
        ]
      }, 
      "version": {
        "build_number": 20170324133216, 
        "version_string": "2017.03.24"
      }
    }, 
    {
      "data": {
        "checksum": "457afb007aa157b0c5b2cb82a23dfc876b07650bb4bf0a76eeaae36662464653", 
        "contents_checksum": "914d302ccbe5af0c425c12bb7a976b15b88999394ceaeb12859f46c9f556fb9c", 
        "size": 3289059, 
        "source": "https://dl.google.com/dl/cloudsdk/channels/rapid/components/google-cloud-sdk-bigtable-linux-x86-20170324133216.tar.gz", 
        "type": "tar"
      }, 
      "dependencies": [
        "core"
      ], 
      "details": {
        "description": "Provides a tool for local Cloud Bigtable emulation.", 
        "display_name": "Cloud Bigtable emulator (Linux, x86)"
      }, 
      "id": "bigtable-linux-x86", 
      "is_configuration": false, 
      "is_hidden": true, 
      "is_required": false, 
      "platform": {
        "architectures": [
          "x86"
        ], 
        "operating_systems": [
          "LINUX"
        ]
      }, 
      "version": {
        "build_number": 20170324133216, 
        "version_string": "2017.03.24"
      }
    }, 
    {
      "data": {
        "checksum": "af71ae2c03df4dfb10289b1f5253cfc70cd143475a2683c0338181d48ebf99ce", 
        "contents_checksum": "be3aa27e8e6d2ba4f64ac33cfb1d638513c97e93dc7ecc6b19d3eded17efe19f", 
        "size": 3507079, 
        "source": "https://dl.google.com/dl/cloudsdk/channels/rapid/components/google-cloud-sdk-bigtable-linux-x86_64-20170324133216.tar.gz", 
        "type": "tar"
      }, 
      "dependencies": [
        "core"
      ], 
      "details": {
        "description": "Provides a tool for local Cloud Bigtable emulation.", 
        "display_name": "Cloud Bigtable emulator (Linux, x86_64)"
      }, 
      "id": "bigtable-linux-x86_64", 
      "is_configuration": false, 
      "is_hidden": true, 
      "is_required": false, 
      "platform": {
        "architectures": [
          "x86_64"
        ], 
        "operating_systems": [
          "LINUX"
        ]
      }, 
      "version": {
        "build_number": 20170324133216, 
        "version_string": "2017.03.24"
      }
    }, 
    {
      "data": {
        "checksum": "6d5678489c151b9f2f177304fdf5cd1e8fc9e7d24ac2f67eb3c89d3a26ec6357", 
        "contents_checksum": "4a54a970bd3b4309cf66dd77b983299b868c0894c7517df66ca9c4c9dbdc31dd", 
        "size": 468235, 
        "source": "https://dl.google.com/dl/cloudsdk/channels/rapid/components/google-cloud-sdk-bq-20170424073254.tar.gz", 
        "type": "tar"
      }, 
      "dependencies": [
        "core", 
        "bq-nix", 
        "bq-win"
      ], 
      "details": {
        "description": "Provides the bq tool for interacting with the BigQuery service.", 
        "display_name": "BigQuery Command Line Tool"
      }, 
      "id": "bq", 
      "is_configuration": false, 
      "is_hidden": false, 
      "is_required": false, 
      "platform": {}, 
      "version": {
        "build_number": 20170424073254, 
        "version_string": "2.0.24"
      }
    }, 
    {
      "data": {
        "checksum": "d5e3c66eacb1783da693e434fdf90a80cbe1da0b690156e863671ea1a8508908", 
        "contents_checksum": "02a926831e2558b8a1025baad8bcba83b89da87226ccc79a843b0a9990749ae3", 
        "size": 1165, 
        "source": "https://dl.google.com/dl/cloudsdk/channels/rapid/components/google-cloud-sdk-bq-nix-20170324133216.tar.gz", 
        "type": "tar"
      }, 
      "dependencies": [
        "core", 
        "bq"
      ], 
      "details": {
        "description": "Provides the bq tool for interacting with the BigQuery service.", 
        "display_name": "BigQuery Command Line Tool (Platform Specific)"
      }, 
      "id": "bq-nix", 
      "is_configuration": false, 
      "is_hidden": true, 
      "is_required": false, 
      "platform": {
        "operating_systems": [
          "LINUX", 
          "MACOSX", 
          "CYGWIN", 
          "MSYS"
        ]
      }, 
      "version": {
        "build_number": 20170324133216, 
        "version_string": "2.0.24"
      }
    }, 
    {
      "data": {
        "checksum": "4f952cd7e7adf9d69f8e92f0aca51b08eb6d8ef8acd5e8b3bf32be432cc58953", 
        "contents_checksum": "cc1c6eeea701b71026a5045b5741641c84572b06a027a2e392962b8aeff06140", 
        "size": 1664, 
        "source": "https://dl.google.com/dl/cloudsdk/channels/rapid/components/google-cloud-sdk-bq-win-20170324133216.tar.gz", 
        "type": "tar"
      }, 
      "dependencies": [
        "core", 
        "bq"
      ], 
      "details": {
        "description": "Provides the bq tool for interacting with the BigQuery service.", 
        "display_name": "BigQuery Command Line Tool (Platform Specific)"
      }, 
      "id": "bq-win", 
      "is_configuration": false, 
      "is_hidden": true, 
      "is_required": false, 
      "platform": {
        "operating_systems": [
          "WINDOWS"
        ]
      }, 
      "version": {
        "build_number": 20170324133216, 
        "version_string": "2.0.24"
      }
    }, 
    {
      "dependencies": [
        "core", 
        "broker-linux-x86", 
        "broker-linux-x86_64", 
        "broker-darwin-x86", 
        "broker-darwin-x86_64", 
        "broker-windows-x86", 
        "broker-windows-x86_64"
      ], 
      "details": {
        "description": "Provides the broker tool for emulator management.", 
        "display_name": "cloud-testenv-broker"
      }, 
      "id": "broker", 
      "is_configuration": false, 
      "is_hidden": true, 
      "is_required": false, 
      "platform": {}, 
      "version": {
        "build_number": 0, 
        "version_string": ""
      }
    }, 
    {
      "data": {
        "checksum": "9d3be2b6a284fe076e7134d197e35dac09838e002d967ac48a86299e1facb320", 
        "contents_checksum": "66d0489ce07af4b8f8eaedd199883fc94e5ee3922e69e04b246a783d95b2dc60", 
        "size": 6327065, 
        "source": "https://dl.google.com/dl/cloudsdk/channels/rapid/components/google-cloud-sdk-broker-darwin-x86-20170324133216.tar.gz", 
        "type": "tar"
      }, 
      "dependencies": [
        "core"
      ], 
      "details": {
        "description": "Provides the broker tool for emulator management.", 
        "display_name": "cloud-testenv-broker (Linux, x86)"
      }, 
      "id": "broker-darwin-x86", 
      "is_configuration": false, 
      "is_hidden": true, 
      "is_required": false, 
      "platform": {
        "architectures": [
          "x86"
        ], 
        "operating_systems": [
          "MACOSX"
        ]
      }, 
      "version": {
        "build_number": 20170324133216, 
        "version_string": "2017.03.24"
      }
    }, 
    {
      "data": {
        "checksum": "71c05794ada23a185d8e21067eed78521b7d911c5438b1d3514911c196b6f868", 
        "contents_checksum": "127ac3a403dcae3be59b02f569757bd5f82ade22b917fe1594df0b5ea1140353", 
        "size": 6761948, 
        "source": "https://dl.google.com/dl/cloudsdk/channels/rapid/components/google-cloud-sdk-broker-darwin-x86_64-20170324133216.tar.gz", 
        "type": "tar"
      }, 
      "dependencies": [
        "core"
      ], 
      "details": {
        "description": "Provides the broker tool for emulator management.", 
        "display_name": "cloud-testenv-broker (Mac, x86_64)"
      }, 
      "id": "broker-darwin-x86_64", 
      "is_configuration": false, 
      "is_hidden": true, 
      "is_required": false, 
      "platform": {
        "architectures": [
          "x86_64"
        ], 
        "operating_systems": [
          "MACOSX"
        ]
      }, 
      "version": {
        "build_number": 20170324133216, 
        "version_string": "2017.03.24"
      }
    }, 
    {
      "data": {
        "checksum": "df538517aabe2bdffb84c4cedd7d88590a99f5ec90c5dce61644bcd3378d2434", 
        "contents_checksum": "43a51f7fad13ed017520f377c9df3b51350e294164a86204c044c7a6f7f987b6", 
        "size": 6388087, 
        "source": "https://dl.google.com/dl/cloudsdk/channels/rapid/components/google-cloud-sdk-broker-linux-x86-20170324133216.tar.gz", 
        "type": "tar"
      }, 
      "dependencies": [
        "core"
      ], 
      "details": {
        "description": "Provides the broker tool for emulator management.", 
        "display_name": "cloud-testenv-broker (Linux, x86)"
      }, 
      "id": "broker-linux-x86", 
      "is_configuration": false, 
      "is_hidden": true, 
      "is_required": false, 
      "platform": {
        "architectures": [
          "x86"
        ], 
        "operating_systems": [
          "LINUX"
        ]
      }, 
      "version": {
        "build_number": 20170324133216, 
        "version_string": "2017.03.24"
      }
    }, 
    {
      "data": {
        "checksum": "cd8d2f13dea04988adb6d4fe304c3e35a28189917a5486f3110f114911a904c9", 
        "contents_checksum": "73f6a18ecc1994c2f6e6fe79c13ace3633c60930eb6575af623c960abe06142f", 
        "size": 6866274, 
        "source": "https://dl.google.com/dl/cloudsdk/channels/rapid/components/google-cloud-sdk-broker-linux-x86_64-20170324133216.tar.gz", 
        "type": "tar"
      }, 
      "dependencies": [
        "core"
      ], 
      "details": {
        "description": "Provides the broker tool for emulator management.", 
        "display_name": "cloud-testenv-broker (Linux, x86_64)"
      }, 
      "id": "broker-linux-x86_64", 
      "is_configuration": false, 
      "is_hidden": true, 
      "is_required": false, 
      "platform": {
        "architectures": [
          "x86_64"
        ], 
        "operating_systems": [
          "LINUX"
        ]
      }, 
      "version": {
        "build_number": 20170324133216, 
        "version_string": "2017.03.24"
      }
    }, 
    {
      "data": {
        "checksum": "552a74778b1adc18b6954249aa7ce7360d9246ef727265ef38cd1075f26336d1", 
        "contents_checksum": "1e9da730d2512a919ab4cb811cb8b5d1aa3a52dd50108e72946c1fd2f8547e23", 
        "size": 6346197, 
        "source": "https://dl.google.com/dl/cloudsdk/channels/rapid/components/google-cloud-sdk-broker-windows-x86-20170324133216.tar.gz", 
        "type": "tar"
      }, 
      "dependencies": [
        "core"
      ], 
      "details": {
        "description": "Provides the broker tool for emulator management.", 
        "display_name": "cloud-testenv-broker (Windows, x86)"
      }, 
      "id": "broker-windows-x86", 
      "is_configuration": false, 
      "is_hidden": true, 
      "is_required": false, 
      "platform": {
        "architectures": [
          "x86"
        ], 
        "operating_systems": [
          "WINDOWS"
        ]
      }, 
      "version": {
        "build_number": 20170324133216, 
        "version_string": "2017.03.24"
      }
    }, 
    {
      "data": {
        "checksum": "9711597e2028c0fc92c9249bf666f94c0b3819324a7db640abf1bf87f05b2de2", 
        "contents_checksum": "84caa140e2cdbe68326724a06806a5e80ba82c2f21fd1a64a5dfc1b2cac4b9d3", 
        "size": 6806476, 
        "source": "https://dl.google.com/dl/cloudsdk/channels/rapid/components/google-cloud-sdk-broker-windows-x86_64-20170324133216.tar.gz", 
        "type": "tar"
      }, 
      "dependencies": [
        "core"
      ], 
      "details": {
        "description": "Provides the broker tool for emulator management.", 
        "display_name": "cloud-testenv-broker (Windows, x86_64)"
      }, 
      "id": "broker-windows-x86_64", 
      "is_configuration": false, 
      "is_hidden": true, 
      "is_required": false, 
      "platform": {
        "architectures": [
          "x86_64"
        ], 
        "operating_systems": [
          "WINDOWS"
        ]
      }, 
      "version": {
        "build_number": 20170324133216, 
        "version_string": "2017.03.24"
      }
    }, 
    {
      "data": {
        "checksum": "449e97d91f01ea2f84297e29e4ebf93c99a96c65850620242e2d205fd409373e", 
        "contents_checksum": "3f8c7db11ad118c05fc70d32816bae840be4b7e1a76c6692956f00ffec256831", 
        "size": 9200623, 
        "source": "https://dl.google.com/dl/cloudsdk/channels/rapid/components/google-cloud-sdk-bundled-python-20170414103155.tar.gz", 
        "type": "tar"
      }, 
      "dependencies": [
        "core"
      ], 
      "details": {
        "description": "Provides stand-alone Python install.", 
        "display_name": "Bundled Python"
      }, 
      "id": "bundled-python", 
      "is_configuration": false, 
      "is_hidden": true, 
      "is_required": false, 
      "platform": {
        "architectures": [
          "x86", 
          "x86_64"
        ], 
        "operating_systems": [
          "WINDOWS", 
          "CYGWIN", 
          "MSYS"
        ]
      }, 
      "version": {
        "build_number": 20170414103155, 
        "version_string": "2.7.10"
      }
    }, 
    {
      "dependencies": [
        "cbt-linux-x86", 
        "cbt-linux-x86_64", 
        "cbt-darwin-x86", 
        "cbt-darwin-x86_64", 
        "cbt-windows-x86", 
        "cbt-windows-x86_64"
      ], 
      "details": {
        "description": "Provides the cbt tool for interacting with the Bigtable service.", 
        "display_name": "Bigtable Command Line Tool"
      }, 
      "id": "cbt", 
      "is_configuration": false, 
      "is_hidden": false, 
      "is_required": false, 
      "platform": {
        "architectures": [
          "x86", 
          "x86_64"
        ], 
        "operating_systems": [
          "LINUX", 
          "MACOSX", 
          "WINDOWS"
        ]
      }, 
      "version": {
        "build_number": 0, 
        "version_string": ""
      }
    }, 
    {
      "data": {
        "checksum": "3c3503386be551a88986571a05321681c0494d993ae5c683f5291a3632f069c4", 
        "contents_checksum": "0915065cb74337a0ffa5cc84de09a4f16002a1449583f64095721a98fa6f6ca2", 
        "size": 3856625, 
        "source": "https://dl.google.com/dl/cloudsdk/channels/rapid/components/google-cloud-sdk-cbt-darwin-x86-20170324133216.tar.gz", 
        "type": "tar"
      }, 
      "dependencies": [
        "cbt"
      ], 
      "details": {
        "description": "Provides cbt.", 
        "display_name": "cbt (Mac OS X, x86)"
      }, 
      "id": "cbt-darwin-x86", 
      "is_configuration": false, 
      "is_hidden": true, 
      "is_required": false, 
      "platform": {
        "architectures": [
          "x86"
        ], 
        "operating_systems": [
          "MACOSX"
        ]
      }, 
      "version": {
        "build_number": 20170324133216, 
        "version_string": "0.1.1"
      }
    }, 
    {
      "data": {
        "checksum": "cd3633e0d0396262271c62e2892ab3fa53bfe13b6096756dc52af93a0536ae49", 
        "contents_checksum": "39ac5d7582b902793b36216f71c67c9fa2c4fb70309af1d31d82756a0585250f", 
        "size": 4104694, 
        "source": "https://dl.google.com/dl/cloudsdk/channels/rapid/components/google-cloud-sdk-cbt-darwin-x86_64-20170324133216.tar.gz", 
        "type": "tar"
      }, 
      "dependencies": [
        "cbt"
      ], 
      "details": {
        "description": "Provides cbt.", 
        "display_name": "cbt (Mac OS X, x86_64)"
      }, 
      "id": "cbt-darwin-x86_64", 
      "is_configuration": false, 
      "is_hidden": true, 
      "is_required": false, 
      "platform": {
        "architectures": [
          "x86_64"
        ], 
        "operating_systems": [
          "MACOSX"
        ]
      }, 
      "version": {
        "build_number": 20170324133216, 
        "version_string": "0.1.1"
      }
    }, 
    {
      "data": {
        "checksum": "d07a74bc3843c89a083b67ca9e292bae5a3c8db3523667a5e57066527628fe52", 
        "contents_checksum": "bc092cfdeb53f007498ee92b1ea0c782e671f7ca0ef2645af5df6f246c457267", 
        "size": 3879898, 
        "source": "https://dl.google.com/dl/cloudsdk/channels/rapid/components/google-cloud-sdk-cbt-linux-x86-20170324133216.tar.gz", 
        "type": "tar"
      }, 
      "dependencies": [
        "cbt"
      ], 
      "details": {
        "description": "Provides cbt.", 
        "display_name": "cbt (Linux, x86)"
      }, 
      "id": "cbt-linux-x86", 
      "is_configuration": false, 
      "is_hidden": true, 
      "is_required": false, 
      "platform": {
        "architectures": [
          "x86"
        ], 
        "operating_systems": [
          "LINUX"
        ]
      }, 
      "version": {
        "build_number": 20170324133216, 
        "version_string": "0.1.1"
      }
    }, 
    {
      "data": {
        "checksum": "6c94407d3f77163c3e26f5ae81337f45055f1fe96f6bea35a7e1e6aa5177379a", 
        "contents_checksum": "17ee46d7ef7d90aa01ac05b798aeed77aca734f6612d3fc5a141f8645b8b0f92", 
        "size": 4130540, 
        "source": "https://dl.google.com/dl/cloudsdk/channels/rapid/components/google-cloud-sdk-cbt-linux-x86_64-20170324133216.tar.gz", 
        "type": "tar"
      }, 
      "dependencies": [
        "cbt"
      ], 
      "details": {
        "description": "Provides cbt.", 
        "display_name": "cbt (Linux, x86_64)"
      }, 
      "id": "cbt-linux-x86_64", 
      "is_configuration": false, 
      "is_hidden": true, 
      "is_required": false, 
      "platform": {
        "architectures": [
          "x86_64"
        ], 
        "operating_systems": [
          "LINUX"
        ]
      }, 
      "version": {
        "build_number": 20170324133216, 
        "version_string": "0.1.1"
      }
    }, 
    {
      "data": {
        "checksum": "bd3ed8eb42438f5d0692e6554b81d11e225db3ecb2fa43edef6578b4852e17c0", 
        "contents_checksum": "b72740ac6f00e9ed3e05d4c1c80bc0dd5c640489d4ff6208bdfd3d0ad7d3e3ea", 
        "size": 3823447, 
        "source": "https://dl.google.com/dl/cloudsdk/channels/rapid/components/google-cloud-sdk-cbt-windows-x86-20170324133216.tar.gz", 
        "type": "tar"
      }, 
      "dependencies": [
        "cbt"
      ], 
      "details": {
        "description": "Provides cbt (Windows).", 
        "display_name": "cbt (Windows)"
      }, 
      "id": "cbt-windows-x86", 
      "is_configuration": false, 
      "is_hidden": true, 
      "is_required": false, 
      "platform": {
        "architectures": [
          "x86"
        ], 
        "operating_systems": [
          "WINDOWS"
        ]
      }, 
      "version": {
        "build_number": 20170324133216, 
        "version_string": "0.1.1"
      }
    }, 
    {
      "data": {
        "checksum": "44e356546feb644bacffd61a71a45e67e2ee348e5086fa3f07969f0a8abf01bc", 
        "contents_checksum": "8dfa31b695bbd46eb9b7a9ac1904de091efdc75f1425d6e69f3e3a4433c2334a", 
        "size": 4078166, 
        "source": "https://dl.google.com/dl/cloudsdk/channels/rapid/components/google-cloud-sdk-cbt-windows-x86_64-20170324133216.tar.gz", 
        "type": "tar"
      }, 
      "dependencies": [
        "cbt"
      ], 
      "details": {
        "description": "Provides cbt (Windows).", 
        "display_name": "cbt (Windows)"
      }, 
      "id": "cbt-windows-x86_64", 
      "is_configuration": false, 
      "is_hidden": true, 
      "is_required": false, 
      "platform": {
        "architectures": [
          "x86_64"
        ], 
        "operating_systems": [
          "WINDOWS"
        ]
      }, 
      "version": {
        "build_number": 20170324133216, 
        "version_string": "0.1.1"
      }
    }, 
    {
      "data": {
        "checksum": "a517e5dc42a44e970855f2a37d0fcc018eea2f1ba54b13846cb2e77e79e04c2a", 
        "contents_checksum": "d9fbb40bd2e74b7e4e67078905af8c39af39e88e6e0715f5752ff161f402f231", 
        "size": 16186696, 
        "source": "https://dl.google.com/dl/cloudsdk/channels/rapid/components/google-cloud-sdk-cloud-datastore-emulator-20170324133216.tar.gz", 
        "type": "tar"
      }, 
      "dependencies": [
        "core"
      ], 
      "details": {
        "description": "Provides a local emulator of Cloud Datastore.", 
        "display_name": "Cloud Datastore Emulator"
      }, 
      "id": "cloud-datastore-emulator", 
      "is_configuration": false, 
      "is_hidden": false, 
      "is_required": false, 
      "platform": {}, 
      "version": {
        "build_number": 20170324133216, 
        "version_string": "1.2.1"
      }
    }, 
    {
      "data": {
        "checksum": "493db0b4120dc8a4e469cb91cd9563f993d5548cd7c7eb55f1f5682efb91f8ba", 
        "contents_checksum": "54d71d30149163500e172223f77fdcd534e379112a54e6bb7451e8d70d59610e", 
        "size": 6236894, 
        "source": "https://dl.google.com/dl/cloudsdk/channels/rapid/components/google-cloud-sdk-core-20170424073254.tar.gz", 
        "type": "tar"
      }, 
      "dependencies": [
        "gcloud-deps", 
        "windows-ssh-tools", 
        "core-nix", 
        "core-win"
      ], 
      "details": {
        "description": "Handles all core functionality for the Cloud SDK.", 
        "display_name": "Cloud SDK Core Libraries"
      }, 
      "id": "core", 
      "is_configuration": false, 
      "is_hidden": false, 
      "is_required": true, 
      "platform": {}, 
      "version": {
        "build_number": 20170424073254, 
        "version_string": "2017.04.24"
      }
    }, 
    {
      "data": {
        "checksum": "097a739a7347152bcb8b807f914691991fcc135a9e9a78b31805d79d4743d059", 
        "contents_checksum": "e51cc459dad6997da19b6c4d0a58a39047b37ef3b32dd77e2e77007ce073bf4e", 
        "size": 1365, 
        "source": "https://dl.google.com/dl/cloudsdk/channels/rapid/components/google-cloud-sdk-core-nix-20170324133216.tar.gz", 
        "type": "tar"
      }, 
      "dependencies": [
        "gcloud-deps", 
        "windows-ssh-tools", 
        "core"
      ], 
      "details": {
        "description": "Handles all core functionality for the Cloud SDK.", 
        "display_name": "Cloud SDK Core Libraries (Platform Specific)"
      }, 
      "id": "core-nix", 
      "is_configuration": false, 
      "is_hidden": true, 
      "is_required": true, 
      "platform": {
        "operating_systems": [
          "LINUX", 
          "MACOSX", 
          "CYGWIN", 
          "MSYS"
        ]
      }, 
      "version": {
        "build_number": 20170324133216, 
        "version_string": "2017.03.24"
      }
    }, 
    {
      "data": {
        "checksum": "ce69b4f824447ef47d2efcef89e0f1909f8bde8854366e587eebc5de04f29c10", 
        "contents_checksum": "aac0372b63a3f15a7c31696bf8748e641801c9b7ccc0c93c6344002d9138ea91", 
        "size": 1867, 
        "source": "https://dl.google.com/dl/cloudsdk/channels/rapid/components/google-cloud-sdk-core-win-20170324133216.tar.gz", 
        "type": "tar"
      }, 
      "dependencies": [
        "gcloud-deps", 
        "windows-ssh-tools", 
        "core"
      ], 
      "details": {
        "description": "Handles all core functionality for the Cloud SDK.", 
        "display_name": "Cloud SDK Core Libraries (Platform Specific)"
      }, 
      "id": "core-win", 
      "is_configuration": false, 
      "is_hidden": true, 
      "is_required": true, 
      "platform": {
        "operating_systems": [
          "WINDOWS"
        ]
      }, 
      "version": {
        "build_number": 20170324133216, 
        "version_string": "2017.03.24"
      }
    }, 
    {
      "data": {
        "checksum": "d5814af3b99e5b02a8290d9f102d2da86d5e60dbac2505533569ce923e89572a", 
        "contents_checksum": "a0f8bccd6a35b1ac56988661001cd382078b2a9872bfcb3e6972ccdd91053b3f", 
        "size": 13452, 
        "source": "https://dl.google.com/dl/cloudsdk/channels/rapid/components/google-cloud-sdk-datalab-20170407123654.tar.gz", 
        "type": "tar"
      }, 
      "dependencies": [
        "core", 
        "gcloud", 
        "beta", 
        "alpha", 
        "datalab-nix", 
        "datalab-win"
      ], 
      "details": {
        "description": "Provides the datalab tool for managing Google Cloud Datalab instances.", 
        "display_name": "Cloud Datalab Command Line Tool"
      }, 
      "id": "datalab", 
      "is_configuration": false, 
      "is_hidden": false, 
      "is_required": false, 
      "platform": {}, 
      "version": {
        "build_number": 20170407123654, 
        "version_string": "20170330"
      }
    }, 
    {
      "data": {
        "checksum": "2167598c4c6a43b47715c2f27e20b27c73dfd9c4a05d9d6595e2035781b8b8a4", 
        "contents_checksum": "0db49657d4e170546ed55eba4542ce05027ff1d5705788e703da583f0fa95e8c", 
        "size": 1177, 
        "source": "https://dl.google.com/dl/cloudsdk/channels/rapid/components/google-cloud-sdk-datalab-nix-20170324133216.tar.gz", 
        "type": "tar"
      }, 
      "dependencies": [
        "core", 
        "gcloud", 
        "beta", 
        "alpha", 
        "datalab"
      ], 
      "details": {
        "description": "Provides the datalab tool for managing Google Cloud Datalab instances.", 
        "display_name": "Cloud Datalab Command Line Tool (Platform Specific)"
      }, 
      "id": "datalab-nix", 
      "is_configuration": false, 
      "is_hidden": true, 
      "is_required": false, 
      "platform": {
        "operating_systems": [
          "LINUX", 
          "MACOSX", 
          "CYGWIN", 
          "MSYS"
        ]
      }, 
      "version": {
        "build_number": 20170324133216, 
        "version_string": "20170323"
      }
    }, 
    {
      "data": {
        "checksum": "4844d75653b786d60ace743efc2943c3cf9552033cd3efcf0b727c4e014bab2b", 
        "contents_checksum": "dd1aa6709ba5c603a21ca8de1af46570243b5000708a8ed435b3e54fb2ed0dc6", 
        "size": 856, 
        "source": "https://dl.google.com/dl/cloudsdk/channels/rapid/components/google-cloud-sdk-datalab-win-20170324133216.tar.gz", 
        "type": "tar"
      }, 
      "dependencies": [
        "core", 
        "gcloud", 
        "beta", 
        "alpha", 
        "datalab"
      ], 
      "details": {
        "description": "Provides the datalab tool for managing Google Cloud Datalab instances.", 
        "display_name": "Cloud Datalab Command Line Tool (Platform Specific)"
      }, 
      "id": "datalab-win", 
      "is_configuration": false, 
      "is_hidden": true, 
      "is_required": false, 
      "platform": {
        "operating_systems": [
          "WINDOWS"
        ]
      }, 
      "version": {
        "build_number": 20170324133216, 
        "version_string": "20170323"
      }
    }, 
    {
      "dependencies": [
        "docker-credential-gcr-linux-x86", 
        "docker-credential-gcr-linux-x86_64", 
        "docker-credential-gcr-darwin-x86", 
        "docker-credential-gcr-darwin-x86_64", 
        "docker-credential-gcr-windows-x86", 
        "docker-credential-gcr-windows-x86_64"
      ], 
      "details": {
        "description": "Provides docker-credential-gcr executable.", 
        "display_name": "Google Container Registry's Docker credential helper"
      }, 
      "id": "docker-credential-gcr", 
      "is_configuration": false, 
      "is_hidden": false, 
      "is_required": false, 
      "platform": {
        "architectures": [
          "x86", 
          "x86_64"
        ], 
        "operating_systems": [
          "LINUX", 
          "MACOSX", 
          "WINDOWS"
        ]
      }, 
      "version": {
        "build_number": 0, 
        "version_string": ""
      }
    }, 
    {
      "data": {
        "checksum": "26355dd1ce1577d89639874aaf0b39212fcd3f9bbf4a30f924a2d9e2f8c14f35", 
        "contents_checksum": "8ac29984b4ab5df319ce1ad1d06e5c50d984bf3694ae3c7f9f83c900f00eddbc", 
        "size": 3313612, 
        "source": "https://dl.google.com/dl/cloudsdk/channels/rapid/components/google-cloud-sdk-docker-credential-gcr-darwin-x86-20170324133216.tar.gz", 
        "type": "tar"
      }, 
      "dependencies": [
        "docker-credential-gcr"
      ], 
      "details": {
        "description": "Provides docker-credential-gcr. See https://github.com/GoogleCloudPlatform/docker-credential-gcr", 
        "display_name": "docker-credential-gcr (Mac OS X, x86)"
      }, 
      "id": "docker-credential-gcr-darwin-x86", 
      "is_configuration": false, 
      "is_hidden": true, 
      "is_required": false, 
      "platform": {
        "architectures": [
          "x86"
        ], 
        "operating_systems": [
          "MACOSX"
        ]
      }, 
      "version": {
        "build_number": 20170324133216, 
        "version_string": "1.3.4"
      }
    }, 
    {
      "data": {
        "checksum": "ad43a59572aa2b3beb51a3a3c6eba9781ff5f8c8ece23793f858979ed8790ec4", 
        "contents_checksum": "e18c6cbf4066dbd8dd36bef91483d18b6b903a638ee32586716b899256d0aaff", 
        "size": 3528406, 
        "source": "https://dl.google.com/dl/cloudsdk/channels/rapid/components/google-cloud-sdk-docker-credential-gcr-darwin-x86_64-20170324133216.tar.gz", 
        "type": "tar"
      }, 
      "dependencies": [
        "docker-credential-gcr"
      ], 
      "details": {
        "description": "Provides docker-credential-gcr. See https://github.com/GoogleCloudPlatform/docker-credential-gcr", 
        "display_name": "docker-credential-gcr (Mac OS X, x86_64)"
      }, 
      "id": "docker-credential-gcr-darwin-x86_64", 
      "is_configuration": false, 
      "is_hidden": true, 
      "is_required": false, 
      "platform": {
        "architectures": [
          "x86_64"
        ], 
        "operating_systems": [
          "MACOSX"
        ]
      }, 
      "version": {
        "build_number": 20170324133216, 
        "version_string": "1.3.4"
      }
    }, 
    {
      "data": {
        "checksum": "ca3a12ebf0f8a6a021bcb6b28d28faba4a50d50f6fe676aab4d7b669579e376e", 
        "contents_checksum": "1a7df9ceb7cb2e673f0b6a2bc2abc1ea8ee27a31e19eb208e5a15793bc43498b", 
        "size": 3331834, 
        "source": "https://dl.google.com/dl/cloudsdk/channels/rapid/components/google-cloud-sdk-docker-credential-gcr-linux-x86-20170324133216.tar.gz", 
        "type": "tar"
      }, 
      "dependencies": [
        "docker-credential-gcr"
      ], 
      "details": {
        "description": "Provides docker-credential-gcr. See https://github.com/GoogleCloudPlatform/docker-credential-gcr", 
        "display_name": "docker-credential-gcr (Linux, x86)"
      }, 
      "id": "docker-credential-gcr-linux-x86", 
      "is_configuration": false, 
      "is_hidden": true, 
      "is_required": false, 
      "platform": {
        "architectures": [
          "x86"
        ], 
        "operating_systems": [
          "LINUX"
        ]
      }, 
      "version": {
        "build_number": 20170324133216, 
        "version_string": "1.3.4"
      }
    }, 
    {
      "data": {
        "checksum": "348051ec708824b72172e9e2b5c61c79f5aaf4ff0de5d256163c6779f44f359c", 
        "contents_checksum": "547e9a644f500e5ab6903d7dc421aab54f4e63e6c51d41d2c4e43516e866c395", 
        "size": 3551708, 
        "source": "https://dl.google.com/dl/cloudsdk/channels/rapid/components/google-cloud-sdk-docker-credential-gcr-linux-x86_64-20170324133216.tar.gz", 
        "type": "tar"
      }, 
      "dependencies": [
        "docker-credential-gcr"
      ], 
      "details": {
        "description": "Provides docker-credential-gcr. See https://github.com/GoogleCloudPlatform/docker-credential-gcr", 
        "display_name": "docker-credential-gcr (Linux, x86_64)"
      }, 
      "id": "docker-credential-gcr-linux-x86_64", 
      "is_configuration": false, 
      "is_hidden": true, 
      "is_required": false, 
      "platform": {
        "architectures": [
          "x86_64"
        ], 
        "operating_systems": [
          "LINUX"
        ]
      }, 
      "version": {
        "build_number": 20170324133216, 
        "version_string": "1.3.4"
      }
    }, 
    {
      "data": {
        "checksum": "c77b5e611e1bae371f518742b9229277ad3ccf5cb0b906479888787ff385f920", 
        "contents_checksum": "5727c214444e1a21e72c03964daad9dfe3bdad583d0de0be1ff6ab99e24ffcab", 
        "size": 3276052, 
        "source": "https://dl.google.com/dl/cloudsdk/channels/rapid/components/google-cloud-sdk-docker-credential-gcr-windows-x86-20170324133216.tar.gz", 
        "type": "tar"
      }, 
      "dependencies": [
        "docker-credential-gcr"
      ], 
      "details": {
        "description": "Provides docker-credential-gcr. See https://github.com/GoogleCloudPlatform/docker-credential-gcr", 
        "display_name": "docker-credential-gcr (Windows, x86)"
      }, 
      "id": "docker-credential-gcr-windows-x86", 
      "is_configuration": false, 
      "is_hidden": true, 
      "is_required": false, 
      "platform": {
        "architectures": [
          "x86"
        ], 
        "operating_systems": [
          "WINDOWS"
        ]
      }, 
      "version": {
        "build_number": 20170324133216, 
        "version_string": "1.3.4"
      }
    }, 
    {
      "data": {
        "checksum": "9a1e035893cf00c31dd33e1a4310663eaf4b5b062d2cf6b47a4298e727a7a241", 
        "contents_checksum": "96a97a663df88086d641441c73c3721a59889a2c51cd00a6f6f0f0d191b103b8", 
        "size": 3492768, 
        "source": "https://dl.google.com/dl/cloudsdk/channels/rapid/components/google-cloud-sdk-docker-credential-gcr-windows-x86_64-20170324133216.tar.gz", 
        "type": "tar"
      }, 
      "dependencies": [
        "docker-credential-gcr"
      ], 
      "details": {
        "description": "Provides docker-credential-gcr. See https://github.com/GoogleCloudPlatform/docker-credential-gcr", 
        "display_name": "docker-credential-gcr (Windows, x86_64)"
      }, 
      "id": "docker-credential-gcr-windows-x86_64", 
      "is_configuration": false, 
      "is_hidden": true, 
      "is_required": false, 
      "platform": {
        "architectures": [
          "x86_64"
        ], 
        "operating_systems": [
          "WINDOWS"
        ]
      }, 
      "version": {
        "build_number": 20170324133216, 
        "version_string": "1.3.4"
      }
    }, 
    {
      "dependencies": [
        "emulator-reverse-proxy-linux-x86_64", 
        "emulator-reverse-proxy-darwin-x86_64", 
        "emulator-reverse-proxy-windows-x86_64", 
        "emulator-reverse-proxy-nossl-x86"
      ], 
      "details": {
        "description": "Provides emulator-reverse-proxy executable.", 
        "display_name": "Emulator Reverse Proxy"
      }, 
      "id": "emulator-reverse-proxy", 
      "is_configuration": false, 
      "is_hidden": false, 
      "is_required": false, 
      "platform": {
        "architectures": [
          "x86", 
          "x86_64"
        ], 
        "operating_systems": [
          "LINUX", 
          "MACOSX", 
          "WINDOWS"
        ]
      }, 
      "version": {
        "build_number": 0, 
        "version_string": ""
      }
    }, 
    {
      "data": {
        "checksum": "bc06a2b29db08f46a49ad775d692ffecfee362ab2b12a82d1e50c8a2d3939b17", 
        "contents_checksum": "3b391d57a3b0ec7b1d3e598f20d6ab66565cc4dc58a9b2fc8d3d052827ddeb32", 
        "size": 15162438, 
        "source": "https://dl.google.com/dl/cloudsdk/channels/rapid/components/google-cloud-sdk-emulator-reverse-proxy-darwin-x86_64-20170414091934.tar.gz", 
        "type": "tar"
      }, 
      "dependencies": [
        "emulator-reverse-proxy"
      ], 
      "details": {
        "description": "Provides emulator-reverse-proxy.", 
        "display_name": "emulator-reverse-proxy (Mac OS X, x86_64)"
      }, 
      "id": "emulator-reverse-proxy-darwin-x86_64", 
      "is_configuration": false, 
      "is_hidden": true, 
      "is_required": false, 
      "platform": {
        "architectures": [
          "x86_64"
        ], 
        "operating_systems": [
          "MACOSX"
        ]
      }, 
      "version": {
        "build_number": 20170414091934, 
        "version_string": "0.0.1"
      }
    }, 
    {
      "data": {
        "checksum": "8faab0667b8d0488e4fc10af1ba4e6261f11a2a8f5d9e90d493eb58866e99006", 
        "contents_checksum": "7960483db214afabd463d2e7c08d6862982c8d468e7ef169c0d00b4788647bdf", 
        "size": 15182484, 
        "source": "https://dl.google.com/dl/cloudsdk/channels/rapid/components/google-cloud-sdk-emulator-reverse-proxy-linux-x86_64-20170414091934.tar.gz", 
        "type": "tar"
      }, 
      "dependencies": [
        "emulator-reverse-proxy"
      ], 
      "details": {
        "description": "Provides emulator-reverse-proxy.", 
        "display_name": "emulator-reverse-proxy (Linux, x86_64)"
      }, 
      "id": "emulator-reverse-proxy-linux-x86_64", 
      "is_configuration": false, 
      "is_hidden": true, 
      "is_required": false, 
      "platform": {
        "architectures": [
          "x86_64"
        ], 
        "operating_systems": [
          "LINUX"
        ]
      }, 
      "version": {
        "build_number": 20170414091934, 
        "version_string": "0.0.1"
      }
    }, 
    {
      "data": {
        "checksum": "c4b70e2ae71bdf3602fa3b3a573ecd634085decacb7a566aa421adae651946ce", 
        "contents_checksum": "35be2b4dee135cbfd50b45c4662e93440cad0904b2b78d8567680391cde7ba90", 
        "size": 15101519, 
        "source": "https://dl.google.com/dl/cloudsdk/channels/rapid/components/google-cloud-sdk-emulator-reverse-proxy-nossl-x86-20170414091934.tar.gz", 
        "type": "tar"
      }, 
      "dependencies": [
        "emulator-reverse-proxy"
      ], 
      "details": {
        "description": "Provides emulator-reverse-proxy.", 
        "display_name": "emulator-reverse-proxy (nossl, x86)"
      }, 
      "id": "emulator-reverse-proxy-nossl-x86", 
      "is_configuration": false, 
      "is_hidden": true, 
      "is_required": false, 
      "platform": {
        "architectures": [
          "x86"
        ], 
        "operating_systems": [
          "LINUX", 
          "MACOSX", 
          "WINDOWS"
        ]
      }, 
      "version": {
        "build_number": 20170414091934, 
        "version_string": "0.0.1"
      }
    }, 
    {
      "data": {
        "checksum": "a03fc35ee456e072183fe34ed5f245677a78ef7c60b27c183dc7ea9249b7fb25", 
        "contents_checksum": "d6e70b96adc1e95d163e6936ac132f4396a797eecbd360ee19efa2283c65375e", 
        "size": 15166625, 
        "source": "https://dl.google.com/dl/cloudsdk/channels/rapid/components/google-cloud-sdk-emulator-reverse-proxy-windows-x86_64-20170414091934.tar.gz", 
        "type": "tar"
      }, 
      "dependencies": [
        "emulator-reverse-proxy"
      ], 
      "details": {
        "description": "Provides emulator-reverse-proxy.", 
        "display_name": "emulator-reverse-proxy (Windows, x86_64)"
      }, 
      "id": "emulator-reverse-proxy-windows-x86_64", 
      "is_configuration": false, 
      "is_hidden": true, 
      "is_required": false, 
      "platform": {
        "architectures": [
          "x86_64"
        ], 
        "operating_systems": [
          "WINDOWS"
        ]
      }, 
      "version": {
        "build_number": 20170414091934, 
        "version_string": "0.0.1"
      }
    }, 
    {
      "data": {
        "checksum": "07a06b72cf4681473313b0e283ec515900f947fe78db930e8f357d7158a5bad5", 
        "contents_checksum": "fb1f60d9046525d7cff83250b0b8940f18e4a758a04d26cdfb22a8063476b3b0", 
        "size": 39934164, 
        "source": "https://dl.google.com/dl/cloudsdk/channels/rapid/components/google-cloud-sdk-gcd-emulator-20170324133216.tar.gz", 
        "type": "tar"
      }, 
      "dependencies": [
        "core"
      ], 
      "details": {
        "description": "Provides the legacy gcd tool for local Cloud Datastore emulation. Supports Cloud Datastore API v1beta2.", 
        "display_name": "Cloud Datastore Emulator (Legacy)"
      }, 
      "id": "gcd-emulator", 
      "is_configuration": false, 
      "is_hidden": false, 
      "is_required": false, 
      "platform": {}, 
      "version": {
        "build_number": 20170324133216, 
        "version_string": "v1beta3-1.0.0"
      }
    }, 
    {
      "dependencies": [
        "core"
      ], 
      "details": {
        "description": "Default set of gcloud commands.", 
        "display_name": "Default set of gcloud commands"
      }, 
      "id": "gcloud", 
      "is_configuration": false, 
      "is_hidden": false, 
      "is_required": false, 
      "platform": {}, 
      "version": {
        "build_number": 0, 
        "version_string": ""
      }
    }, 
    {
      "data": {
        "checksum": "d3a1d0e67074ad74a91efa0ae71b76f544f8c2f817c85818fe7fa07601e408ad", 
        "contents_checksum": "00287067cb868eb167b4e585f40ca6d5566cdd1942439684d2a70d1e4eaa3572", 
        "size": 1564504, 
        "source": "https://dl.google.com/dl/cloudsdk/channels/rapid/components/google-cloud-sdk-gcloud-deps-20170424073254.tar.gz", 
        "type": "tar"
      }, 
      "dependencies": [
        "core", 
        "gcloud-deps-linux-x86", 
        "gcloud-deps-linux-x86_64", 
        "gcloud-deps-darwin-x86", 
        "gcloud-deps-darwin-x86_64", 
        "gcloud-deps-windows-x86", 
        "gcloud-deps-windows-x86_64"
      ], 
      "details": {
        "description": "Set of third_party gcloud cli dependencies.", 
        "display_name": "gcloud cli dependencies"
      }, 
      "id": "gcloud-deps", 
      "is_configuration": false, 
      "is_hidden": true, 
      "is_required": false, 
      "platform": {
        "architectures": [
          "x86", 
          "x86_64"
        ], 
        "operating_systems": [
          "LINUX", 
          "MACOSX", 
          "WINDOWS"
        ]
      }, 
      "version": {
        "build_number": 20170424073254, 
        "version_string": "2017.04.24"
      }
    }, 
    {
      "data": {
        "checksum": "973f86a90f1c27736e31ea79ba8b40c0ba472b581200d074de7c41e170a0ecbc", 
        "contents_checksum": "2d1b8ff85773acbd32f5ad11357164710f2b6a1db2ea472c6af7574733ed2eff", 
        "size": 2212452, 
        "source": "https://dl.google.com/dl/cloudsdk/channels/rapid/components/google-cloud-sdk-gcloud-deps-darwin-x86-20170331121909.tar.gz", 
        "type": "tar"
      }, 
      "dependencies": [
        "gcloud-deps"
      ], 
      "details": {
        "description": "Provides gcloud dependencies.", 
        "display_name": "gcloud-deps (Mac OS X, x86)"
      }, 
      "id": "gcloud-deps-darwin-x86", 
      "is_configuration": false, 
      "is_hidden": true, 
      "is_required": false, 
      "platform": {
        "architectures": [
          "x86"
        ], 
        "operating_systems": [
          "MACOSX"
        ]
      }, 
      "version": {
        "build_number": 20170331121909, 
        "version_string": "2017.03.31"
      }
    }, 
    {
      "data": {
        "checksum": "973f86a90f1c27736e31ea79ba8b40c0ba472b581200d074de7c41e170a0ecbc", 
        "contents_checksum": "2d1b8ff85773acbd32f5ad11357164710f2b6a1db2ea472c6af7574733ed2eff", 
        "size": 2212452, 
        "source": "https://dl.google.com/dl/cloudsdk/channels/rapid/components/google-cloud-sdk-gcloud-deps-darwin-x86_64-20170331121909.tar.gz", 
        "type": "tar"
      }, 
      "dependencies": [
        "gcloud-deps"
      ], 
      "details": {
        "description": "Provides gcloud dependencies.", 
        "display_name": "gcloud-deps (Mac OS X, x86_64)"
      }, 
      "id": "gcloud-deps-darwin-x86_64", 
      "is_configuration": false, 
      "is_hidden": true, 
      "is_required": false, 
      "platform": {
        "architectures": [
          "x86_64"
        ], 
        "operating_systems": [
          "MACOSX"
        ]
      }, 
      "version": {
        "build_number": 20170331121909, 
        "version_string": "2017.03.31"
      }
    }, 
    {
      "data": {
        "checksum": "35b9c0fd3c0c15cbe0d3ecd902bc43d97620375d95646754c21a1224333912d0", 
        "contents_checksum": "e49a32dc573701ac3299a7f27cb8ea8721f4a0576eb765ac66d52ba347d31192", 
        "size": 4554863, 
        "source": "https://dl.google.com/dl/cloudsdk/channels/rapid/components/google-cloud-sdk-gcloud-deps-linux-x86-20170331121909.tar.gz", 
        "type": "tar"
      }, 
      "dependencies": [
        "gcloud-deps"
      ], 
      "details": {
        "description": "Provides gcloud dependencies.", 
        "display_name": "gcloud-deps (Linux, x86)"
      }, 
      "id": "gcloud-deps-linux-x86", 
      "is_configuration": false, 
      "is_hidden": true, 
      "is_required": false, 
      "platform": {
        "architectures": [
          "x86"
        ], 
        "operating_systems": [
          "LINUX"
        ]
      }, 
      "version": {
        "build_number": 20170331121909, 
        "version_string": "2017.03.31"
      }
    }, 
    {
      "data": {
        "checksum": "49daecb47fbd0881e34f8a66d93b7eb0ff2de331b9f8e67b80bf4051e2fb350a", 
        "contents_checksum": "a38ca74bec4b27d1af25ce53e9b7f4f841549588f75b11e361c6842d51a20b5c", 
        "size": 4131003, 
        "source": "https://dl.google.com/dl/cloudsdk/channels/rapid/components/google-cloud-sdk-gcloud-deps-linux-x86_64-20170331121909.tar.gz", 
        "type": "tar"
      }, 
      "dependencies": [
        "gcloud-deps"
      ], 
      "details": {
        "description": "Provides gcloud dependencies.", 
        "display_name": "gcloud-deps (Linux, x86_64)"
      }, 
      "id": "gcloud-deps-linux-x86_64", 
      "is_configuration": false, 
      "is_hidden": true, 
      "is_required": false, 
      "platform": {
        "architectures": [
          "x86_64"
        ], 
        "operating_systems": [
          "LINUX"
        ]
      }, 
      "version": {
        "build_number": 20170331121909, 
        "version_string": "2017.03.31"
      }
    }, 
    {
      "data": {
        "checksum": "152cdd16e39add918d311d953f54949b6ab4e6349f7d155e6f1987f43b05f2ec", 
        "contents_checksum": "dd5374f824ba1db09281b7ee055185663201e62a5a35d8725048dbfdefc99b0e", 
        "size": 1072615, 
        "source": "https://dl.google.com/dl/cloudsdk/channels/rapid/components/google-cloud-sdk-gcloud-deps-windows-x86-20170331121909.tar.gz", 
        "type": "tar"
      }, 
      "dependencies": [
        "gcloud-deps"
      ], 
      "details": {
        "description": "Provides gcloud dependencies (Windows).", 
        "display_name": "gcloud-deps (Windows)"
      }, 
      "id": "gcloud-deps-windows-x86", 
      "is_configuration": false, 
      "is_hidden": true, 
      "is_required": false, 
      "platform": {
        "architectures": [
          "x86"
        ], 
        "operating_systems": [
          "WINDOWS"
        ]
      }, 
      "version": {
        "build_number": 20170331121909, 
        "version_string": "2017.03.31"
      }
    }, 
    {
      "data": {
        "checksum": "52f51704fd252daf291a3f93f22617fc3ed67b3fd2ad00edb765a5884e79ae96", 
        "contents_checksum": "4cad9ceb3ec142dc2f8fc35edd77fbfa43e4d8b4b4137029875814c225b69e00", 
        "size": 1050055, 
        "source": "https://dl.google.com/dl/cloudsdk/channels/rapid/components/google-cloud-sdk-gcloud-deps-windows-x86_64-20170331121909.tar.gz", 
        "type": "tar"
      }, 
      "dependencies": [
        "gcloud-deps"
      ], 
      "details": {
        "description": "Provides gcloud dependencies (Windows).", 
        "display_name": "gcloud-deps (Windows)"
      }, 
      "id": "gcloud-deps-windows-x86_64", 
      "is_configuration": false, 
      "is_hidden": true, 
      "is_required": false, 
      "platform": {
        "architectures": [
          "x86_64"
        ], 
        "operating_systems": [
          "WINDOWS"
        ]
      }, 
      "version": {
        "build_number": 20170331121909, 
        "version_string": "2017.03.31"
      }
    }, 
    {
      "data": {
        "checksum": "c92024530ce361c5334d00146e72436a866055fbe8693ca82b7648b0c1c03d05", 
        "contents_checksum": "206b64535f0896eb5602881a374280c69abe10aa07d7b9bf1ec023f2d1931b89", 
        "size": 3016648, 
        "source": "https://dl.google.com/dl/cloudsdk/channels/rapid/components/google-cloud-sdk-gsutil-20170407123654.tar.gz", 
        "type": "tar"
      }, 
      "dependencies": [
        "core", 
        "gsutil-nix", 
        "gsutil-win"
      ], 
      "details": {
        "description": "Provides the gsutil tool for interacting with Google Cloud Storage.", 
        "display_name": "Cloud Storage Command Line Tool"
      }, 
      "id": "gsutil", 
      "is_configuration": false, 
      "is_hidden": false, 
      "is_required": false, 
      "platform": {}, 
      "version": {
        "build_number": 20170407123654, 
        "version_string": "4.25"
      }
    }, 
    {
      "data": {
        "checksum": "5f281d3157102ddcc867b3f6ad741d0c8018a19ffbdc7b5ca304f906802ef689", 
        "contents_checksum": "9af0b2fae82c3623e0b90fe142b461f67bc8aa82c3c5b78083cea9f0de580188", 
        "size": 1177, 
        "source": "https://dl.google.com/dl/cloudsdk/channels/rapid/components/google-cloud-sdk-gsutil-nix-20170324133216.tar.gz", 
        "type": "tar"
      }, 
      "dependencies": [
        "core", 
        "gsutil"
      ], 
      "details": {
        "description": "Provides the gsutil tool for interacting with Google Cloud Storage.", 
        "display_name": "Cloud Storage Command Line Tool (Platform Specific)"
      }, 
      "id": "gsutil-nix", 
      "is_configuration": false, 
      "is_hidden": true, 
      "is_required": false, 
      "platform": {
        "operating_systems": [
          "LINUX", 
          "MACOSX", 
          "CYGWIN", 
          "MSYS"
        ]
      }, 
      "version": {
        "build_number": 20170324133216, 
        "version_string": "4.23"
      }
    }, 
    {
      "data": {
        "checksum": "a452eb639b076a99d06c9f008cfafeb3f58acf679902ff617966c8764e10661a", 
        "contents_checksum": "b7163ab2626183c5bbc10963a73a388f6b4d94f87cb2c09670dc17a066d08dcb", 
        "size": 1707, 
        "source": "https://dl.google.com/dl/cloudsdk/channels/rapid/components/google-cloud-sdk-gsutil-win-20170324133216.tar.gz", 
        "type": "tar"
      }, 
      "dependencies": [
        "core", 
        "gsutil"
      ], 
      "details": {
        "description": "Provides the gsutil tool for interacting with Google Cloud Storage.", 
        "display_name": "Cloud Storage Command Line Tool (Platform Specific)"
      }, 
      "id": "gsutil-win", 
      "is_configuration": false, 
      "is_hidden": true, 
      "is_required": false, 
      "platform": {
        "operating_systems": [
          "WINDOWS"
        ]
      }, 
      "version": {
        "build_number": 20170324133216, 
        "version_string": "4.23"
      }
    }, 
    {
      "dependencies": [
        "kubectl-linux-x86", 
        "kubectl-linux-x86_64", 
        "kubectl-darwin-x86", 
        "kubectl-darwin-x86_64", 
        "kubectl-windows-x86", 
        "kubectl-windows-x86_64"
      ], 
      "details": {
        "description": "Provides kubectl executable.", 
        "display_name": "kubectl"
      }, 
      "id": "kubectl", 
      "is_configuration": false, 
      "is_hidden": false, 
      "is_required": false, 
      "platform": {
        "architectures": [
          "x86", 
          "x86_64"
        ], 
        "operating_systems": [
          "LINUX", 
          "MACOSX", 
          "WINDOWS"
        ]
      }, 
      "version": {
        "build_number": 0, 
        "version_string": ""
      }
    }, 
    {
      "data": {
        "checksum": "f5e21d53e67018894f312d7f0babcae53ff5fb1f5e6530a181dc328f3c6d0e67", 
        "contents_checksum": "130d8c63e50c427a3c47bb47bfd4b84bb9d936b7f04bb623dc76de4acd42af80", 
        "size": 14789763, 
        "source": "https://dl.google.com/dl/cloudsdk/channels/rapid/components/google-cloud-sdk-kubectl-darwin-x86-20170424073254.tar.gz", 
        "type": "tar"
      }, 
      "dependencies": [
        "kubectl"
      ], 
      "details": {
        "description": "Provides kubectl.", 
        "display_name": "kubectl (Mac OS X, x86)"
      }, 
      "id": "kubectl-darwin-x86", 
      "is_configuration": false, 
      "is_hidden": true, 
      "is_required": false, 
      "platform": {
        "architectures": [
          "x86"
        ], 
        "operating_systems": [
          "MACOSX"
        ]
      }, 
      "version": {
        "build_number": 20170424073254, 
        "version_string": "1.6.2"
      }
    }, 
    {
      "data": {
        "checksum": "8448aa0600da16c0505009cf4e56e7892eab063e24dfbb204d2d83e1f1d3c6cc", 
        "contents_checksum": "6ec9870712ed3ab7868a9ef7be6910cee5f33a1801f1b1af0ae547256af06924", 
        "size": 15503138, 
        "source": "https://dl.google.com/dl/cloudsdk/channels/rapid/components/google-cloud-sdk-kubectl-darwin-x86_64-20170424073254.tar.gz", 
        "type": "tar"
      }, 
      "dependencies": [
        "kubectl"
      ], 
      "details": {
        "description": "Provides kubectl.", 
        "display_name": "kubectl (Mac OS X, x86_64)"
      }, 
      "id": "kubectl-darwin-x86_64", 
      "is_configuration": false, 
      "is_hidden": true, 
      "is_required": false, 
      "platform": {
        "architectures": [
          "x86_64"
        ], 
        "operating_systems": [
          "MACOSX"
        ]
      }, 
      "version": {
        "build_number": 20170424073254, 
        "version_string": "1.6.2"
      }
    }, 
    {
      "data": {
        "checksum": "90229a6fa48a01730c3d5e2d823f2127587b9793b938d4169e544a948dabd8b2", 
        "contents_checksum": "ac4be966c1ea79c45d763366c369692fe909d5045e67215aa484accd471d39bf", 
        "size": 14886604, 
        "source": "https://dl.google.com/dl/cloudsdk/channels/rapid/components/google-cloud-sdk-kubectl-linux-x86-20170424073254.tar.gz", 
        "type": "tar"
      }, 
      "dependencies": [
        "kubectl"
      ], 
      "details": {
        "description": "Provides kubectl.", 
        "display_name": "kubectl (Linux, x86)"
      }, 
      "id": "kubectl-linux-x86", 
      "is_configuration": false, 
      "is_hidden": true, 
      "is_required": false, 
      "platform": {
        "architectures": [
          "x86"
        ], 
        "operating_systems": [
          "LINUX"
        ]
      }, 
      "version": {
        "build_number": 20170424073254, 
        "version_string": "1.6.2"
      }
    }, 
    {
      "data": {
        "checksum": "249d4b45f2c21825031f6e4dcede39aac39dbc959cf5a778065be7d882650129", 
        "contents_checksum": "a290372de865cda8038527124d40e5c6b0d7dffc82e1afbcdaf0117f3660e622", 
        "size": 15604850, 
        "source": "https://dl.google.com/dl/cloudsdk/channels/rapid/components/google-cloud-sdk-kubectl-linux-x86_64-20170424073254.tar.gz", 
        "type": "tar"
      }, 
      "dependencies": [
        "kubectl"
      ], 
      "details": {
        "description": "Provides kubectl.", 
        "display_name": "kubectl (Linux, x86_64)"
      }, 
      "id": "kubectl-linux-x86_64", 
      "is_configuration": false, 
      "is_hidden": true, 
      "is_required": false, 
      "platform": {
        "architectures": [
          "x86_64"
        ], 
        "operating_systems": [
          "LINUX"
        ]
      }, 
      "version": {
        "build_number": 20170424073254, 
        "version_string": "1.6.2"
      }
    }, 
    {
      "data": {
        "checksum": "82cd4d1d52f49d8ab365734e61437e2cde8076b5d6165b772a24469fb5552b06", 
        "contents_checksum": "5e738f9eef2374797790a601dcc49c2c834cc7ac1d7b17f498f77d07ffdcfa35", 
        "size": 14891052, 
        "source": "https://dl.google.com/dl/cloudsdk/channels/rapid/components/google-cloud-sdk-kubectl-windows-x86-20170424073254.tar.gz", 
        "type": "tar"
      }, 
      "dependencies": [
        "kubectl"
      ], 
      "details": {
        "description": "Provides kubectl (Windows).", 
        "display_name": "kubectl (Windows)"
      }, 
      "id": "kubectl-windows-x86", 
      "is_configuration": false, 
      "is_hidden": true, 
      "is_required": false, 
      "platform": {
        "architectures": [
          "x86"
        ], 
        "operating_systems": [
          "WINDOWS"
        ]
      }, 
      "version": {
        "build_number": 20170424073254, 
        "version_string": "1.6.2"
      }
    }, 
    {
      "data": {
        "checksum": "8f302d26b524f4e6f79a68a73be2615d41beee0b1e0801d677d75dc9806f2a02", 
        "contents_checksum": "886873a496e6bdd870224e35cc9d8cd3e40d6460b13063a37d592cf84c84bbc6", 
        "size": 15625010, 
        "source": "https://dl.google.com/dl/cloudsdk/channels/rapid/components/google-cloud-sdk-kubectl-windows-x86_64-20170424073254.tar.gz", 
        "type": "tar"
      }, 
      "dependencies": [
        "kubectl"
      ], 
      "details": {
        "description": "Provides kubectl (Windows).", 
        "display_name": "kubectl (Windows)"
      }, 
      "id": "kubectl-windows-x86_64", 
      "is_configuration": false, 
      "is_hidden": true, 
      "is_required": false, 
      "platform": {
        "architectures": [
          "x86_64"
        ], 
        "operating_systems": [
          "WINDOWS"
        ]
      }, 
      "version": {
        "build_number": 20170424073254, 
        "version_string": "1.6.2"
      }
    }, 
    {
      "data": {
        "checksum": "c53b1937fedcedd041ae3810e4dd8f3524741f00500e1af5da126359dd2bd0b4", 
        "contents_checksum": "a4413972834d0f4e3c66157c863214727dfc2fee686e97a1292e4bc14fc4dc9c", 
        "size": 6612601, 
        "source": "https://dl.google.com/dl/cloudsdk/channels/rapid/components/google-cloud-sdk-powershell-20170331121909.tar.gz", 
        "type": "tar"
      }, 
      "dependencies": [
        "core"
      ], 
      "details": {
        "description": "PowerShell cmdlets for the Google Cloud Platform.", 
        "display_name": "Cloud Tools for PowerShell"
      }, 
      "id": "powershell", 
      "is_configuration": false, 
      "is_hidden": true, 
      "is_required": false, 
      "platform": {
        "architectures": [
          "x86", 
          "x86_64"
        ], 
        "operating_systems": [
          "WINDOWS"
        ]
      }, 
      "version": {
        "build_number": 20170331121909, 
        "version_string": "1.0.0.5"
      }
    }, 
    {
      "data": {
        "checksum": "b9aa89dfbac8168943f942cde9c2767eec5a45a705595f3990a37b2e1f7406cb", 
        "contents_checksum": "f403c1f8c1e4d7c2c567e2189fbcace34fbe469c1debcae637c595b8a85f7fd8", 
        "size": 22024932, 
        "source": "https://dl.google.com/dl/cloudsdk/channels/rapid/components/google-cloud-sdk-pubsub-emulator-20170324133216.tar.gz", 
        "type": "tar"
      }, 
      "dependencies": [
        "core"
      ], 
      "details": {
        "description": "Provides the Pub/Sub emulator.", 
        "display_name": "Cloud Pub/Sub Emulator"
      }, 
      "id": "pubsub-emulator", 
      "is_configuration": false, 
      "is_hidden": false, 
      "is_required": false, 
      "platform": {}, 
      "version": {
        "build_number": 20170324133216, 
        "version_string": "2017.03.24"
      }
    }, 
    {
      "data": {
        "checksum": "b219ff606c7cf476fc60c28c69d096923e4a5e1f235f4ca26e31a5d2ed48c2d6", 
        "contents_checksum": "9a3c8c34f4eea4f12da888642c0f26c85344e0c192d67577aa3eb9e2f028f34b", 
        "size": 16097508, 
        "source": "https://dl.google.com/dl/cloudsdk/channels/rapid/components/google-cloud-sdk-tests-20170424073254.tar.gz", 
        "type": "tar"
      }, 
      "dependencies": [
        "alpha", 
        "app-engine-go", 
        "app-engine-go-darwin-x86", 
        "app-engine-go-darwin-x86_64", 
        "app-engine-go-linux-x86", 
        "app-engine-go-linux-x86_64", 
        "app-engine-go-windows-x86", 
        "app-engine-go-windows-x86_64", 
        "app-engine-grpc", 
        "app-engine-grpc-darwin-x86_64", 
        "app-engine-grpc-linux-x86_64", 
        "app-engine-grpc-windows-x86_64", 
        "app-engine-java", 
        "app-engine-php", 
        "app-engine-php-darwin", 
        "app-engine-php-windows", 
        "app-engine-python", 
        "app-engine-python-extras", 
        "beta", 
        "bigtable", 
        "bigtable-darwin-x86", 
        "bigtable-darwin-x86_64", 
        "bigtable-linux-x86", 
        "bigtable-linux-x86_64", 
        "bq", 
        "broker", 
        "broker-darwin-x86", 
        "broker-darwin-x86_64", 
        "broker-linux-x86", 
        "broker-linux-x86_64", 
        "broker-windows-x86", 
        "broker-windows-x86_64", 
        "bundled-python", 
        "cbt", 
        "cbt-darwin-x86", 
        "cbt-darwin-x86_64", 
        "cbt-linux-x86", 
        "cbt-linux-x86_64", 
        "cbt-windows-x86", 
        "cbt-windows-x86_64", 
        "cloud-datastore-emulator", 
        "core", 
        "datalab", 
        "docker-credential-gcr", 
        "docker-credential-gcr-darwin-x86", 
        "docker-credential-gcr-darwin-x86_64", 
        "docker-credential-gcr-linux-x86", 
        "docker-credential-gcr-linux-x86_64", 
        "docker-credential-gcr-windows-x86", 
        "docker-credential-gcr-windows-x86_64", 
        "emulator-reverse-proxy", 
        "emulator-reverse-proxy-darwin-x86_64", 
        "emulator-reverse-proxy-linux-x86_64", 
        "emulator-reverse-proxy-nossl-x86", 
        "emulator-reverse-proxy-windows-x86_64", 
        "gcd-emulator", 
        "gcloud", 
        "gcloud-deps", 
        "gcloud-deps-darwin-x86", 
        "gcloud-deps-darwin-x86_64", 
        "gcloud-deps-linux-x86", 
        "gcloud-deps-linux-x86_64", 
        "gcloud-deps-windows-x86", 
        "gcloud-deps-windows-x86_64", 
        "gsutil", 
        "kubectl", 
        "kubectl-darwin-x86", 
        "kubectl-darwin-x86_64", 
        "kubectl-linux-x86", 
        "kubectl-linux-x86_64", 
        "kubectl-windows-x86", 
        "kubectl-windows-x86_64", 
        "powershell", 
        "pubsub-emulator", 
        "windows-ssh-tools"
      ], 
      "details": {
        "description": "Collection of tests used to verity Cloud SDK", 
        "display_name": "Cloud SDK tests"
      }, 
      "id": "tests", 
      "is_configuration": false, 
      "is_hidden": true, 
      "is_required": false, 
      "platform": {}, 
      "version": {
        "build_number": 20170424073254, 
        "version_string": "2017.04.24"
      }
    }, 
    {
      "data": {
        "checksum": "b5827ca2ff12d8c24d8fe1c2cfcb281cb1a3928e78ff5c3735b161708f1552e7", 
        "contents_checksum": "d4de84e948dec607c354b3ab1a977674e6fec995edd4496435831c32806ebae1", 
        "size": 1915733, 
        "source": "https://dl.google.com/dl/cloudsdk/channels/rapid/components/google-cloud-sdk-windows-ssh-tools-20170324133216.tar.gz", 
        "type": "tar"
      }, 
      "dependencies": [], 
      "details": {
        "description": "Provides Windows command line ssh tools.", 
        "display_name": "Windows command line ssh tools"
      }, 
      "id": "windows-ssh-tools", 
      "is_configuration": false, 
      "is_hidden": true, 
      "is_required": false, 
      "platform": {
        "operating_systems": [
          "WINDOWS"
        ]
      }, 
      "version": {
        "build_number": 20170324133216, 
        "version_string": "2017.03.24"
      }
    }
  ], 
  "gcloud_rel_path": "lib/gcloud.py", 
  "notifications": [
    {
      "condition": {
        "check_components": true
      }, 
      "id": "default", 
      "notification": {}, 
      "trigger": {
        "frequency": 86400
      }
    }
  ], 
  "post_processing_command": "components post-process", 
  "release_notes_url": "https://dl.google.com/dl/cloudsdk/channels/rapid/RELEASE_NOTES", 
  "revision": 20170424073254, 
  "schema_version": {
    "no_update": false, 
    "url": "https://dl.google.com/dl/cloudsdk/channels/rapid/google-cloud-sdk.tar.gz", 
    "version": 3
  }, 
  "version": "153.0.0"
}