{
  "components": [
    {
      "data": {
        "checksum": "524c7790e60eb086133ea7fc482675c2d54c67db8b907fcf2e8daeca05041c33", 
        "contents_checksum": "b84ed7725d1dca9cdb3d9a0f81e4829048e9b0262f4ae4a94f0fe19124a7dc48", 
        "size": 685, 
        "source": "file:///tmp/tmpMrlSjb/components/google-cloud-sdk-alpha-20170424073254.tar.gz", 
        "type": "tar"
      }, 
      "dependencies": [
        "core"
      ], 
      "details": {
        "description": "Alpha version of gcloud commands.", 
        "display_name": "gcloud Alpha Commands"
      }, 
      "id": "alpha", 
      "is_configuration": false, 
      "is_hidden": false, 
      "is_required": false, 
      "platform": {}, 
      "version": {
        "build_number": 20170424073254, 
        "version_string": "2017.04.24"
      }
    }, 
    {
      "dependencies": [
        "core", 
        "app-engine-python", 
        "app-engine-go-linux-x86", 
        "app-engine-go-linux-x86_64", 
        "app-engine-go-darwin-x86", 
        "app-engine-go-darwin-x86_64", 
        "app-engine-go-windows-x86", 
        "app-engine-go-windows-x86_64"
      ], 
      "details": {
        "description": "Provides the tools to develop Go applications on App Engine.", 
        "display_name": "App Engine Go Extensions"
      }, 
      "id": "app-engine-go", 
      "is_configuration": false, 
      "is_hidden": false, 
      "is_required": false, 
      "platform": {
        "architectures": [
          "x86", 
          "x86_64"
        ], 
        "operating_systems": [
          "LINUX", 
          "MACOSX", 
          "WINDOWS"
        ]
      }, 
      "version": {
        "build_number": 0, 
        "version_string": ""
      }
    }, 
    {
      "data": {
        "checksum": "13d47562acfd6374d56912b23ad6d8d7f7f2ae1eae7d9ddf04adce04d25b527b", 
        "contents_checksum": "e92fd97c7599175d32ee359ff64020ee12767c427e9f570bb25647172d3c473d", 
        "size": 48173462, 
        "source": "file:///tmp/tmpMrlSjb/components/google-cloud-sdk-app-engine-go-darwin-x86-20170424073254.tar.gz", 
        "type": "tar"
      }, 
      "dependencies": [
        "app-engine-go"
      ], 
      "details": {
        "description": "Provides the tools to develop Go applications on App Engine. (MacOS, x86)", 
        "display_name": "App Engine Go (MacOS, x86)"
      }, 
      "id": "app-engine-go-darwin-x86", 
      "is_configuration": false, 
      "is_hidden": true, 
      "is_required": false, 
      "platform": {
        "architectures": [
          "x86"
        ], 
        "operating_systems": [
          "MACOSX"
        ]
      }, 
      "version": {
        "build_number": 20170424073254, 
        "version_string": "1.9.50"
      }
    }, 
    {
      "data": {
        "checksum": "f30efcb5c748f44702302e51b0eb9648e4b1bc89e676f3bc0932fec669ce1c72", 
        "contents_checksum": "ec5886519e3caaf94c0c39763c589021fca799a752e3ffbb87db327695bdd183", 
        "size": 50009062, 
        "source": "file:///tmp/tmpMrlSjb/components/google-cloud-sdk-app-engine-go-darwin-x86_64-20170424073254.tar.gz", 
        "type": "tar"
      }, 
      "dependencies": [
        "app-engine-go"
      ], 
      "details": {
        "description": "Provides the tools to develop Go applications on App Engine. (MacOS, x86_64)", 
        "display_name": "App Engine Go (MacOS, x86_64)"
      }, 
      "id": "app-engine-go-darwin-x86_64", 
      "is_configuration": false, 
      "is_hidden": true, 
      "is_required": false, 
      "platform": {
        "architectures": [
          "x86_64"
        ], 
        "operating_systems": [
          "MACOSX"
        ]
      }, 
      "version": {
        "build_number": 20170424073254, 
        "version_string": "1.9.50"
      }
    }, 
    {
      "data": {
        "checksum": "64d0ab6c6751b0e2c2fd6534b3054cab3f5d00b792041363fe326fa3abb6f588", 
        "contents_checksum": "d5abf903972151b3d6901839abddb626c887934eab956f8fae615ac263e51e02", 
        "size": 48322827, 
        "source": "file:///tmp/tmpMrlSjb/components/google-cloud-sdk-app-engine-go-linux-x86-20170424073254.tar.gz", 
        "type": "tar"
      }, 
      "dependencies": [
        "app-engine-go"
      ], 
      "details": {
        "description": "Provides the tools to develop Go applications on App Engine. (Linux, x86)", 
        "display_name": "App Engine Go (Linux, x86)"
      }, 
      "id": "app-engine-go-linux-x86", 
      "is_configuration": false, 
      "is_hidden": true, 
      "is_required": false, 
      "platform": {
        "architectures": [
          "x86"
        ], 
        "operating_systems": [
          "LINUX"
        ]
      }, 
      "version": {
        "build_number": 20170424073254, 
        "version_string": "1.9.50"
      }
    }, 
    {
      "data": {
        "checksum": "4566b74c22a71291fed7511fdef98827139e1d845735f284eadc3f557146baea", 
        "contents_checksum": "39f3d472d600ae8172811718cb1d0c89b8e4bebaa1f1e076086df8335d01c448", 
        "size": 50205154, 
        "source": "file:///tmp/tmpMrlSjb/components/google-cloud-sdk-app-engine-go-linux-x86_64-20170424073254.tar.gz", 
        "type": "tar"
      }, 
      "dependencies": [
        "app-engine-go"
      ], 
      "details": {
        "description": "Provides the tools to develop Go applications on App Engine. (Linux, x86_64)", 
        "display_name": "App Engine Go (Linux, x86_64)"
      }, 
      "id": "app-engine-go-linux-x86_64", 
      "is_configuration": false, 
      "is_hidden": true, 
      "is_required": false, 
      "platform": {
        "architectures": [
          "x86_64"
        ], 
        "operating_systems": [
          "LINUX"
        ]
      }, 
      "version": {
        "build_number": 20170424073254, 
        "version_string": "1.9.50"
      }
    }, 
    {
      "data": {
        "checksum": "621773d0f06ff6ac2bea2c3e9af44a2f5c41b56a78d6ea0e79e3b454dc0382ec", 
        "contents_checksum": "e0261c03b7707ad02191f14ed7729635d2eca28c8240cbf91983bc9bdb558e97", 
        "size": 48793001, 
        "source": "file:///tmp/tmpMrlSjb/components/google-cloud-sdk-app-engine-go-windows-x86-20170424073254.tar.gz", 
        "type": "tar"
      }, 
      "dependencies": [
        "app-engine-go"
      ], 
      "details": {
        "description": "Provides the tools to develop Go applications on App Engine. (Windows, x86)", 
        "display_name": "App Engine Go (Windows, x86)"
      }, 
      "id": "app-engine-go-windows-x86", 
      "is_configuration": false, 
      "is_hidden": true, 
      "is_required": false, 
      "platform": {
        "architectures": [
          "x86"
        ], 
        "operating_systems": [
          "WINDOWS"
        ]
      }, 
      "version": {
        "build_number": 20170424073254, 
        "version_string": "1.9.50"
      }
    }, 
    {
      "data": {
        "checksum": "44e77b78963b25c1738b4b08ea6f491207d554ec738b0b559a7b770daf26c897", 
        "contents_checksum": "cd5c05f2413068410f9cddbf516bba4012e52b5662a4dde79c78dffa94064b26", 
        "size": 50753134, 
        "source": "file:///tmp/tmpMrlSjb/components/google-cloud-sdk-app-engine-go-windows-x86_64-20170424073254.tar.gz", 
        "type": "tar"
      }, 
      "dependencies": [
        "app-engine-go"
      ], 
      "details": {
        "description": "Provides the tools to develop Go applications on App Engine. (Windows, x86_64)", 
        "display_name": "App Engine Go (Windows, x86_64)"
      }, 
      "id": "app-engine-go-windows-x86_64", 
      "is_configuration": false, 
      "is_hidden": true, 
      "is_required": false, 
      "platform": {
        "architectures": [
          "x86_64"
        ], 
        "operating_systems": [
          "WINDOWS"
        ]
      }, 
      "version": {
        "build_number": 20170424073254, 
        "version_string": "1.9.50"
      }
    }, 
    {
      "dependencies": [
        "core", 
        "app-engine-grpc-linux-x86_64", 
        "app-engine-grpc-darwin-x86_64", 
        "app-engine-grpc-windows-x86_64"
      ], 
      "details": {
        "description": "Provides the gRPC python library for app engine.", 
        "display_name": "gRPC python library"
      }, 
      "id": "app-engine-grpc", 
      "is_configuration": false, 
      "is_hidden": true, 
      "is_required": false, 
      "platform": {
        "architectures": [
          "x86", 
          "x86_64"
        ], 
        "operating_systems": [
          "LINUX", 
          "MACOSX", 
          "WINDOWS"
        ]
      }, 
      "version": {
        "build_number": 0, 
        "version_string": ""
      }
    }, 
    {
      "data": {
        "checksum": "2219422173146c863fdaffa9f88bb6cf23be05392db9111a0a17988d550ea529", 
        "contents_checksum": "4492315211c6ab7a001ea910655022a64651ddd0802e85b16fbda776f6b0716d", 
        "size": 3570878, 
        "source": "file:///tmp/tmpMrlSjb/components/google-cloud-sdk-app-engine-grpc-darwin-x86_64-20170424073254.tar.gz", 
        "type": "tar"
      }, 
      "dependencies": [
        "app-engine-grpc"
      ], 
      "details": {
        "description": "Provides the gRPC python library for app engine. (Mac OSX, x86_64)", 
        "display_name": "gRPC python library (Mac OSX, x86_64)"
      }, 
      "id": "app-engine-grpc-darwin-x86_64", 
      "is_configuration": false, 
      "is_hidden": true, 
      "is_required": false, 
      "platform": {
        "architectures": [
          "x86_64"
        ], 
        "operating_systems": [
          "MACOSX"
        ]
      }, 
      "version": {
        "build_number": 20170424073254, 
        "version_string": "1.0.0"
      }
    }, 
    {
      "data": {
        "checksum": "e407544f1d8cb1ea69afe8ba3618761cbeebca247a7af849a9e0c4f502110eea", 
        "contents_checksum": "828261d65f230a08880a36cfb0851f50b30a1de30c1040a62b4c5a6976d647a9", 
        "size": 6142041, 
        "source": "file:///tmp/tmpMrlSjb/components/google-cloud-sdk-app-engine-grpc-linux-x86_64-20170424073254.tar.gz", 
        "type": "tar"
      }, 
      "dependencies": [
        "app-engine-grpc"
      ], 
      "details": {
        "description": "Provides the gRPC python library for app engine. (Linux, x86_64)", 
        "display_name": "gRPC python library (linux, x86_64)"
      }, 
      "id": "app-engine-grpc-linux-x86_64", 
      "is_configuration": false, 
      "is_hidden": true, 
      "is_required": false, 
      "platform": {
        "architectures": [
          "x86_64"
        ], 
        "operating_systems": [
          "LINUX"
        ]
      }, 
      "version": {
        "build_number": 20170424073254, 
        "version_string": "1.0.0"
      }
    }, 
    {
      "data": {
        "checksum": "96ec4166437aae628323be5c4442d018be64d2c68630bc81fb40b9f0f739bf09", 
        "contents_checksum": "610a4e290c5d67a064b28a40efd33ad17ca813c0544d6d4ee30776644199a210", 
        "size": 2485141, 
        "source": "file:///tmp/tmpMrlSjb/components/google-cloud-sdk-app-engine-grpc-windows-x86_64-20170424073254.tar.gz", 
        "type": "tar"
      }, 
      "dependencies": [
        "app-engine-grpc"
      ], 
      "details": {
        "description": "Provides the gRPC python library for app engine. (Windows, x86_64)", 
        "display_name": "gRPC python library (Windows, x86_64)"
      }, 
      "id": "app-engine-grpc-windows-x86_64", 
      "is_configuration": false, 
      "is_hidden": true, 
      "is_required": false, 
      "platform": {
        "architectures": [
          "x86_64"
        ], 
        "operating_systems": [
          "WINDOWS"
        ]
      }, 
      "version": {
        "build_number": 20170424073254, 
        "version_string": "1.0.0"
      }
    }, 
    {
      "data": {
        "checksum": "10117e8f6e2553e946ecac37500893aaba82e46e4adda3c24cbea03592bd491c", 
        "contents_checksum": "d38b7d35162adcd473c977fa2049914613df9581e937d43885691bff8e5bb4d2", 
        "size": 134870166, 
        "source": "file:///tmp/tmpMrlSjb/components/google-cloud-sdk-app-engine-java-20170424073254.tar.gz", 
        "type": "tar"
      }, 
      "dependencies": [
        "core", 
        "app-engine-python"
      ], 
      "details": {
        "description": "Provides the tools required to develop Java applications using gcloud.", 
        "display_name": "gcloud app Java Extensions"
      }, 
      "id": "app-engine-java", 
      "is_configuration": false, 
      "is_hidden": false, 
      "is_required": false, 
      "platform": {}, 
      "version": {
        "build_number": 20170424073254, 
        "version_string": "1.9.51"
      }
    }, 
    {
      "dependencies": [
        "core", 
        "app-engine-python", 
        "app-engine-php-windows", 
        "app-engine-php-darwin"
      ], 
      "details": {
        "description": "Provides the PHP runtimes for the dev_appserver.", 
        "display_name": "gcloud app PHP Extensions"
      }, 
      "id": "app-engine-php", 
      "is_configuration": false, 
      "is_hidden": "true", 
      "is_required": false, 
      "platform": {}, 
      "version": {
        "build_number": 0, 
        "version_string": " "
      }
    }, 
    {
      "data": {
        "checksum": "7332db60afabc3314b1e9982523087a1937dcb9affbae372dd991950b038b93d", 
        "contents_checksum": "6d5f20b4d38c2a145e9d3a824c75389b27bbd6018f254a5160f37ce7d6fa46be", 
        "size": 22986791, 
        "source": "file:///tmp/tmpMrlSjb/components/google-cloud-sdk-app-engine-php-darwin-20170424073254.tar.gz", 
        "type": "tar"
      }, 
      "dependencies": [
        "core", 
        "app-engine-php"
      ], 
      "details": {
        "description": "Provides the PHP runtimes for the dev_appserver.", 
        "display_name": "gcloud app PHP Extensions (Mac OS X)"
      }, 
      "id": "app-engine-php-darwin", 
      "is_configuration": false, 
      "is_hidden": false, 
      "is_required": false, 
      "platform": {
        "operating_systems": [
          "MACOSX"
        ]
      }, 
      "version": {
        "build_number": 20170424073254, 
        "version_string": "2017.04.24"
      }
    }, 
    {
      "data": {
        "checksum": "671b5d6885e214362a7cb66a05d2e483e8919ea487997f56fccfa4de78de11ba", 
        "contents_checksum": "0693e8464f197e00ee09d5daa45fc177cd46e6de92e3d22387b887a54bd8484d", 
        "size": 20073062, 
        "source": "file:///tmp/tmpMrlSjb/components/google-cloud-sdk-app-engine-php-windows-20170424073254.tar.gz", 
        "type": "tar"
      }, 
      "dependencies": [
        "core", 
        "app-engine-php"
      ], 
      "details": {
        "description": "Provides the PHP runtimes for the dev_appserver.", 
        "display_name": "gcloud app PHP Extensions (Windows)"
      }, 
      "id": "app-engine-php-windows", 
      "is_configuration": false, 
      "is_hidden": false, 
      "is_required": false, 
      "platform": {
        "operating_systems": [
          "WINDOWS", 
          "CYGWIN", 
          "MSYS"
        ]
      }, 
      "version": {
        "build_number": 20170424073254, 
        "version_string": "2017.04.24"
      }
    }, 
    {
      "data": {
        "checksum": "7ceedbe458b3fdee936c3a4449a35842fa5a9dc2631b72fdcedd2b824d08e357", 
        "contents_checksum": "4e13fd787a9f9bd4e8ec5befa4a94e36d8c361ef8caf1c9127e4c259fd106acc", 
        "size": 6346152, 
        "source": "file:///tmp/tmpMrlSjb/components/google-cloud-sdk-app-engine-python-20170424073254.tar.gz", 
        "type": "tar"
      }, 
      "dependencies": [
        "core"
      ], 
      "details": {
        "description": "Provides the tools required to develop Python and PHP applications using gcloud.", 
        "display_name": "gcloud app Python Extensions"
      }, 
      "id": "app-engine-python", 
      "is_configuration": false, 
      "is_hidden": false, 
      "is_required": false, 
      "platform": {}, 
      "version": {
        "build_number": 20170424073254, 
        "version_string": "1.9.52"
      }
    }, 
    {
      "data": {
        "checksum": "000fc8ae03e3805883361bbbc3d83a45cf8f0732037bc167930bf6a085719743", 
        "contents_checksum": "e04a0dcc9c2d368732216d8e315b741308ff2e7253d21446765a43e62690a0a4", 
        "size": 24696293, 
        "source": "file:///tmp/tmpMrlSjb/components/google-cloud-sdk-app-engine-python-extras-20170424073254.tar.gz", 
        "type": "tar"
      }, 
      "dependencies": [
        "core", 
        "app-engine-python"
      ], 
      "details": {
        "description": "Extra libraries for the App Engine Python Extentions.", 
        "display_name": "gcloud app Python Extensions (Extra Libraries)"
      }, 
      "id": "app-engine-python-extras", 
      "is_configuration": false, 
      "is_hidden": true, 
      "is_required": false, 
      "platform": {}, 
      "version": {
        "build_number": 20170424073254, 
        "version_string": "1.9.52"
      }
    }, 
    {
      "data": {
        "checksum": "dc9a718944f8126eeb6295f5078aaab6850d5eb89b115277f56a7f2509ed4542", 
        "contents_checksum": "9eabe4f17045dd0b084361c1ca232348dd1d8647a5417b6bc87c7487b157fb1a", 
        "size": 684, 
        "source": "file:///tmp/tmpMrlSjb/components/google-cloud-sdk-beta-20170424073254.tar.gz", 
        "type": "tar"
      }, 
      "dependencies": [
        "core"
      ], 
      "details": {
        "description": "Beta version of gcloud commands.", 
        "display_name": "gcloud Beta Commands"
      }, 
      "id": "beta", 
      "is_configuration": false, 
      "is_hidden": false, 
      "is_required": false, 
      "platform": {}, 
      "version": {
        "build_number": 20170424073254, 
        "version_string": "2017.04.24"
      }
    }, 
    {
      "dependencies": [
        "core", 
        "bigtable-linux-x86", 
        "bigtable-linux-x86_64", 
        "bigtable-darwin-x86", 
        "bigtable-darwin-x86_64"
      ], 
      "details": {
        "description": "Provides a tool for local Cloud Bigtable emulation.", 
        "display_name": "Cloud Bigtable emulator"
      }, 
      "id": "bigtable", 
      "is_configuration": false, 
      "is_hidden": true, 
      "is_required": false, 
      "platform": {}, 
      "version": {
        "build_number": 0, 
        "version_string": ""
      }
    }, 
    {
      "data": {
        "checksum": "192312d13ddc6ba2934ed60d7caf18d12656a9a8f07633c042d2aa96c50f1d05", 
        "contents_checksum": "0612c70b0157a0ed0c1b3fbf5fd6a484b3488b032096f316d5d3372740d7a238", 
        "size": 3304620, 
        "source": "file:///tmp/tmpMrlSjb/components/google-cloud-sdk-bigtable-darwin-x86-20170424073254.tar.gz", 
        "type": "tar"
      }, 
      "dependencies": [
        "core"
      ], 
      "details": {
        "description": "Provides a tool for local Cloud Bigtable emulation.", 
        "display_name": "Cloud Bigtable emulator (MAC, x86)"
      }, 
      "id": "bigtable-darwin-x86", 
      "is_configuration": false, 
      "is_hidden": true, 
      "is_required": false, 
      "platform": {
        "architectures": [
          "x86"
        ], 
        "operating_systems": [
          "MACOSX"
        ]
      }, 
      "version": {
        "build_number": 20170424073254, 
        "version_string": "2017.04.24"
      }
    }, 
    {
      "data": {
        "checksum": "5b2ed73e61bf7d72a13cef1eb32d7c6baff8c99e8723acd59e75d85c509ed932", 
        "contents_checksum": "69b01e7bd790abc97e74c674abd28a692dfb6d2a1948176f93415a01f4334ea6", 
        "size": 3503462, 
        "source": "file:///tmp/tmpMrlSjb/components/google-cloud-sdk-bigtable-darwin-x86_64-20170424073254.tar.gz", 
        "type": "tar"
      }, 
      "dependencies": [
        "core"
      ], 
      "details": {
        "description": "Provides a tool for local Cloud Bigtable emulation.", 
        "display_name": "Cloud Bigtable emulator (MAC, x86_64)"
      }, 
      "id": "bigtable-darwin-x86_64", 
      "is_configuration": false, 
      "is_hidden": true, 
      "is_required": false, 
      "platform": {
        "architectures": [
          "x86_64"
        ], 
        "operating_systems": [
          "MACOSX"
        ]
      }, 
      "version": {
        "build_number": 20170424073254, 
        "version_string": "2017.04.24"
      }
    }, 
    {
      "data": {
        "checksum": "2902c00b0dfb2712d2d45cba1448f45840473a7f2325c6e57b02decaf37deb10", 
        "contents_checksum": "914d302ccbe5af0c425c12bb7a976b15b88999394ceaeb12859f46c9f556fb9c", 
        "size": 3289051, 
        "source": "file:///tmp/tmpMrlSjb/components/google-cloud-sdk-bigtable-linux-x86-20170424073254.tar.gz", 
        "type": "tar"
      }, 
      "dependencies": [
        "core"
      ], 
      "details": {
        "description": "Provides a tool for local Cloud Bigtable emulation.", 
        "display_name": "Cloud Bigtable emulator (Linux, x86)"
      }, 
      "id": "bigtable-linux-x86", 
      "is_configuration": false, 
      "is_hidden": true, 
      "is_required": false, 
      "platform": {
        "architectures": [
          "x86"
        ], 
        "operating_systems": [
          "LINUX"
        ]
      }, 
      "version": {
        "build_number": 20170424073254, 
        "version_string": "2017.04.24"
      }
    }, 
    {
      "data": {
        "checksum": "7780ebbacbf69391b00b24f5d7b98f9809dfc21954a3a8e498acc87b8286e3c6", 
        "contents_checksum": "be3aa27e8e6d2ba4f64ac33cfb1d638513c97e93dc7ecc6b19d3eded17efe19f", 
        "size": 3507067, 
        "source": "file:///tmp/tmpMrlSjb/components/google-cloud-sdk-bigtable-linux-x86_64-20170424073254.tar.gz", 
        "type": "tar"
      }, 
      "dependencies": [
        "core"
      ], 
      "details": {
        "description": "Provides a tool for local Cloud Bigtable emulation.", 
        "display_name": "Cloud Bigtable emulator (Linux, x86_64)"
      }, 
      "id": "bigtable-linux-x86_64", 
      "is_configuration": false, 
      "is_hidden": true, 
      "is_required": false, 
      "platform": {
        "architectures": [
          "x86_64"
        ], 
        "operating_systems": [
          "LINUX"
        ]
      }, 
      "version": {
        "build_number": 20170424073254, 
        "version_string": "2017.04.24"
      }
    }, 
    {
      "data": {
        "checksum": "6d5678489c151b9f2f177304fdf5cd1e8fc9e7d24ac2f67eb3c89d3a26ec6357", 
        "contents_checksum": "4a54a970bd3b4309cf66dd77b983299b868c0894c7517df66ca9c4c9dbdc31dd", 
        "size": 468235, 
        "source": "file:///tmp/tmpMrlSjb/components/google-cloud-sdk-bq-20170424073254.tar.gz", 
        "type": "tar"
      }, 
      "dependencies": [
        "core", 
        "bq-nix", 
        "bq-win"
      ], 
      "details": {
        "description": "Provides the bq tool for interacting with the BigQuery service.", 
        "display_name": "BigQuery Command Line Tool"
      }, 
      "id": "bq", 
      "is_configuration": false, 
      "is_hidden": false, 
      "is_required": false, 
      "platform": {}, 
      "version": {
        "build_number": 20170424073254, 
        "version_string": "2.0.24"
      }
    }, 
    {
      "data": {
        "checksum": "0b64344083bb5605b8517eed3c8b76f0c628722e531081a08e1bfe851d4ff045", 
        "contents_checksum": "02a926831e2558b8a1025baad8bcba83b89da87226ccc79a843b0a9990749ae3", 
        "size": 1166, 
        "source": "file:///tmp/tmpMrlSjb/components/google-cloud-sdk-bq-nix-20170424073254.tar.gz", 
        "type": "tar"
      }, 
      "dependencies": [
        "core", 
        "bq"
      ], 
      "details": {
        "description": "Provides the bq tool for interacting with the BigQuery service.", 
        "display_name": "BigQuery Command Line Tool (Platform Specific)"
      }, 
      "id": "bq-nix", 
      "is_configuration": false, 
      "is_hidden": true, 
      "is_required": false, 
      "platform": {
        "operating_systems": [
          "LINUX", 
          "MACOSX", 
          "CYGWIN", 
          "MSYS"
        ]
      }, 
      "version": {
        "build_number": 20170424073254, 
        "version_string": "2.0.24"
      }
    }, 
    {
      "data": {
        "checksum": "5c1f5e5905e99a5b2d7648148b3c0d2858dcf6df211cadf942b217ee097d0536", 
        "contents_checksum": "cc1c6eeea701b71026a5045b5741641c84572b06a027a2e392962b8aeff06140", 
        "size": 1663, 
        "source": "file:///tmp/tmpMrlSjb/components/google-cloud-sdk-bq-win-20170424073254.tar.gz", 
        "type": "tar"
      }, 
      "dependencies": [
        "core", 
        "bq"
      ], 
      "details": {
        "description": "Provides the bq tool for interacting with the BigQuery service.", 
        "display_name": "BigQuery Command Line Tool (Platform Specific)"
      }, 
      "id": "bq-win", 
      "is_configuration": false, 
      "is_hidden": true, 
      "is_required": false, 
      "platform": {
        "operating_systems": [
          "WINDOWS"
        ]
      }, 
      "version": {
        "build_number": 20170424073254, 
        "version_string": "2.0.24"
      }
    }, 
    {
      "dependencies": [
        "core", 
        "broker-linux-x86", 
        "broker-linux-x86_64", 
        "broker-darwin-x86", 
        "broker-darwin-x86_64", 
        "broker-windows-x86", 
        "broker-windows-x86_64"
      ], 
      "details": {
        "description": "Provides the broker tool for emulator management.", 
        "display_name": "cloud-testenv-broker"
      }, 
      "id": "broker", 
      "is_configuration": false, 
      "is_hidden": true, 
      "is_required": false, 
      "platform": {}, 
      "version": {
        "build_number": 0, 
        "version_string": ""
      }
    }, 
    {
      "data": {
        "checksum": "51c47f58f5a4ba018d261c4020f12a95d175dede7f75044904782a767fcdde4f", 
        "contents_checksum": "66d0489ce07af4b8f8eaedd199883fc94e5ee3922e69e04b246a783d95b2dc60", 
        "size": 6326989, 
        "source": "file:///tmp/tmpMrlSjb/components/google-cloud-sdk-broker-darwin-x86-20170424073254.tar.gz", 
        "type": "tar"
      }, 
      "dependencies": [
        "core"
      ], 
      "details": {
        "description": "Provides the broker tool for emulator management.", 
        "display_name": "cloud-testenv-broker (Linux, x86)"
      }, 
      "id": "broker-darwin-x86", 
      "is_configuration": false, 
      "is_hidden": true, 
      "is_required": false, 
      "platform": {
        "architectures": [
          "x86"
        ], 
        "operating_systems": [
          "MACOSX"
        ]
      }, 
      "version": {
        "build_number": 20170424073254, 
        "version_string": "2017.04.24"
      }
    }, 
    {
      "data": {
        "checksum": "5548376bc38aa8d182bb321b321b25c510e16d5e73ed8c63bf76f96d9d3de931", 
        "contents_checksum": "127ac3a403dcae3be59b02f569757bd5f82ade22b917fe1594df0b5ea1140353", 
        "size": 6761964, 
        "source": "file:///tmp/tmpMrlSjb/components/google-cloud-sdk-broker-darwin-x86_64-20170424073254.tar.gz", 
        "type": "tar"
      }, 
      "dependencies": [
        "core"
      ], 
      "details": {
        "description": "Provides the broker tool for emulator management.", 
        "display_name": "cloud-testenv-broker (Mac, x86_64)"
      }, 
      "id": "broker-darwin-x86_64", 
      "is_configuration": false, 
      "is_hidden": true, 
      "is_required": false, 
      "platform": {
        "architectures": [
          "x86_64"
        ], 
        "operating_systems": [
          "MACOSX"
        ]
      }, 
      "version": {
        "build_number": 20170424073254, 
        "version_string": "2017.04.24"
      }
    }, 
    {
      "data": {
        "checksum": "48166c6ec840ae3938d19e2cdd938ed53c43d2cb32c295a37cc4d290b87ea7ce", 
        "contents_checksum": "43a51f7fad13ed017520f377c9df3b51350e294164a86204c044c7a6f7f987b6", 
        "size": 6388090, 
        "source": "file:///tmp/tmpMrlSjb/components/google-cloud-sdk-broker-linux-x86-20170424073254.tar.gz", 
        "type": "tar"
      }, 
      "dependencies": [
        "core"
      ], 
      "details": {
        "description": "Provides the broker tool for emulator management.", 
        "display_name": "cloud-testenv-broker (Linux, x86)"
      }, 
      "id": "broker-linux-x86", 
      "is_configuration": false, 
      "is_hidden": true, 
      "is_required": false, 
      "platform": {
        "architectures": [
          "x86"
        ], 
        "operating_systems": [
          "LINUX"
        ]
      }, 
      "version": {
        "build_number": 20170424073254, 
        "version_string": "2017.04.24"
      }
    }, 
    {
      "data": {
        "checksum": "9d190ab36a993e2f66371301968ac804c44235b117daa8cf6d41538f1ebec200", 
        "contents_checksum": "73f6a18ecc1994c2f6e6fe79c13ace3633c60930eb6575af623c960abe06142f", 
        "size": 6866273, 
        "source": "file:///tmp/tmpMrlSjb/components/google-cloud-sdk-broker-linux-x86_64-20170424073254.tar.gz", 
        "type": "tar"
      }, 
      "dependencies": [
        "core"
      ], 
      "details": {
        "description": "Provides the broker tool for emulator management.", 
        "display_name": "cloud-testenv-broker (Linux, x86_64)"
      }, 
      "id": "broker-linux-x86_64", 
      "is_configuration": false, 
      "is_hidden": true, 
      "is_required": false, 
      "platform": {
        "architectures": [
          "x86_64"
        ], 
        "operating_systems": [
          "LINUX"
        ]
      }, 
      "version": {
        "build_number": 20170424073254, 
        "version_string": "2017.04.24"
      }
    }, 
    {
      "data": {
        "checksum": "69d6052a5ac235c7b09580d4fc79641527bdf3477802cc47c22627eb5f664665", 
        "contents_checksum": "1e9da730d2512a919ab4cb811cb8b5d1aa3a52dd50108e72946c1fd2f8547e23", 
        "size": 6346039, 
        "source": "file:///tmp/tmpMrlSjb/components/google-cloud-sdk-broker-windows-x86-20170424073254.tar.gz", 
        "type": "tar"
      }, 
      "dependencies": [
        "core"
      ], 
      "details": {
        "description": "Provides the broker tool for emulator management.", 
        "display_name": "cloud-testenv-broker (Windows, x86)"
      }, 
      "id": "broker-windows-x86", 
      "is_configuration": false, 
      "is_hidden": true, 
      "is_required": false, 
      "platform": {
        "architectures": [
          "x86"
        ], 
        "operating_systems": [
          "WINDOWS"
        ]
      }, 
      "version": {
        "build_number": 20170424073254, 
        "version_string": "2017.04.24"
      }
    }, 
    {
      "data": {
        "checksum": "19191c2e9349f28749ff999111289858507b959ba5f0f21a0c12c5761b703807", 
        "contents_checksum": "84caa140e2cdbe68326724a06806a5e80ba82c2f21fd1a64a5dfc1b2cac4b9d3", 
        "size": 6806412, 
        "source": "file:///tmp/tmpMrlSjb/components/google-cloud-sdk-broker-windows-x86_64-20170424073254.tar.gz", 
        "type": "tar"
      }, 
      "dependencies": [
        "core"
      ], 
      "details": {
        "description": "Provides the broker tool for emulator management.", 
        "display_name": "cloud-testenv-broker (Windows, x86_64)"
      }, 
      "id": "broker-windows-x86_64", 
      "is_configuration": false, 
      "is_hidden": true, 
      "is_required": false, 
      "platform": {
        "architectures": [
          "x86_64"
        ], 
        "operating_systems": [
          "WINDOWS"
        ]
      }, 
      "version": {
        "build_number": 20170424073254, 
        "version_string": "2017.04.24"
      }
    }, 
    {
      "data": {
        "checksum": "eb187ce2104a0562be68e43fecc19ad78dc854f3c4d375b79d185040d7964469", 
        "contents_checksum": "3f8c7db11ad118c05fc70d32816bae840be4b7e1a76c6692956f00ffec256831", 
        "size": 9201073, 
        "source": "file:///tmp/tmpMrlSjb/components/google-cloud-sdk-bundled-python-20170424073254.tar.gz", 
        "type": "tar"
      }, 
      "dependencies": [
        "core"
      ], 
      "details": {
        "description": "Provides stand-alone Python install.", 
        "display_name": "Bundled Python"
      }, 
      "id": "bundled-python", 
      "is_configuration": false, 
      "is_hidden": true, 
      "is_required": false, 
      "platform": {
        "architectures": [
          "x86", 
          "x86_64"
        ], 
        "operating_systems": [
          "WINDOWS", 
          "CYGWIN", 
          "MSYS"
        ]
      }, 
      "version": {
        "build_number": 20170424073254, 
        "version_string": "2.7.10"
      }
    }, 
    {
      "dependencies": [
        "cbt-linux-x86", 
        "cbt-linux-x86_64", 
        "cbt-darwin-x86", 
        "cbt-darwin-x86_64", 
        "cbt-windows-x86", 
        "cbt-windows-x86_64"
      ], 
      "details": {
        "description": "Provides the cbt tool for interacting with the Bigtable service.", 
        "display_name": "Bigtable Command Line Tool"
      }, 
      "id": "cbt", 
      "is_configuration": false, 
      "is_hidden": false, 
      "is_required": false, 
      "platform": {
        "architectures": [
          "x86", 
          "x86_64"
        ], 
        "operating_systems": [
          "LINUX", 
          "MACOSX", 
          "WINDOWS"
        ]
      }, 
      "version": {
        "build_number": 0, 
        "version_string": ""
      }
    }, 
    {
      "data": {
        "checksum": "0d62530f1a61751d7be832d1b376774fbccd159326de30679473469520fc03d2", 
        "contents_checksum": "0915065cb74337a0ffa5cc84de09a4f16002a1449583f64095721a98fa6f6ca2", 
        "size": 3856634, 
        "source": "file:///tmp/tmpMrlSjb/components/google-cloud-sdk-cbt-darwin-x86-20170424073254.tar.gz", 
        "type": "tar"
      }, 
      "dependencies": [
        "cbt"
      ], 
      "details": {
        "description": "Provides cbt.", 
        "display_name": "cbt (Mac OS X, x86)"
      }, 
      "id": "cbt-darwin-x86", 
      "is_configuration": false, 
      "is_hidden": true, 
      "is_required": false, 
      "platform": {
        "architectures": [
          "x86"
        ], 
        "operating_systems": [
          "MACOSX"
        ]
      }, 
      "version": {
        "build_number": 20170424073254, 
        "version_string": "0.1.1"
      }
    }, 
    {
      "data": {
        "checksum": "63c2d919898bae864f73cfcb86382d8eac73adf57f1cb229442c9401b69a5479", 
        "contents_checksum": "39ac5d7582b902793b36216f71c67c9fa2c4fb70309af1d31d82756a0585250f", 
        "size": 4104625, 
        "source": "file:///tmp/tmpMrlSjb/components/google-cloud-sdk-cbt-darwin-x86_64-20170424073254.tar.gz", 
        "type": "tar"
      }, 
      "dependencies": [
        "cbt"
      ], 
      "details": {
        "description": "Provides cbt.", 
        "display_name": "cbt (Mac OS X, x86_64)"
      }, 
      "id": "cbt-darwin-x86_64", 
      "is_configuration": false, 
      "is_hidden": true, 
      "is_required": false, 
      "platform": {
        "architectures": [
          "x86_64"
        ], 
        "operating_systems": [
          "MACOSX"
        ]
      }, 
      "version": {
        "build_number": 20170424073254, 
        "version_string": "0.1.1"
      }
    }, 
    {
      "data": {
        "checksum": "27c98068e0c7525f36b101b4da53bc339d62f4c584af70ef2314071d51e98bfc", 
        "contents_checksum": "bc092cfdeb53f007498ee92b1ea0c782e671f7ca0ef2645af5df6f246c457267", 
        "size": 3879915, 
        "source": "file:///tmp/tmpMrlSjb/components/google-cloud-sdk-cbt-linux-x86-20170424073254.tar.gz", 
        "type": "tar"
      }, 
      "dependencies": [
        "cbt"
      ], 
      "details": {
        "description": "Provides cbt.", 
        "display_name": "cbt (Linux, x86)"
      }, 
      "id": "cbt-linux-x86", 
      "is_configuration": false, 
      "is_hidden": true, 
      "is_required": false, 
      "platform": {
        "architectures": [
          "x86"
        ], 
        "operating_systems": [
          "LINUX"
        ]
      }, 
      "version": {
        "build_number": 20170424073254, 
        "version_string": "0.1.1"
      }
    }, 
    {
      "data": {
        "checksum": "c04dd3338c219acd95208126494bd8affd3ed0f9f0448ec543b428575d1b100c", 
        "contents_checksum": "17ee46d7ef7d90aa01ac05b798aeed77aca734f6612d3fc5a141f8645b8b0f92", 
        "size": 4130541, 
        "source": "file:///tmp/tmpMrlSjb/components/google-cloud-sdk-cbt-linux-x86_64-20170424073254.tar.gz", 
        "type": "tar"
      }, 
      "dependencies": [
        "cbt"
      ], 
      "details": {
        "description": "Provides cbt.", 
        "display_name": "cbt (Linux, x86_64)"
      }, 
      "id": "cbt-linux-x86_64", 
      "is_configuration": false, 
      "is_hidden": true, 
      "is_required": false, 
      "platform": {
        "architectures": [
          "x86_64"
        ], 
        "operating_systems": [
          "LINUX"
        ]
      }, 
      "version": {
        "build_number": 20170424073254, 
        "version_string": "0.1.1"
      }
    }, 
    {
      "data": {
        "checksum": "2e14a70802b849a0290b26574d1816a48bb3e89114e5050602069853c34f4f91", 
        "contents_checksum": "b72740ac6f00e9ed3e05d4c1c80bc0dd5c640489d4ff6208bdfd3d0ad7d3e3ea", 
        "size": 3823444, 
        "source": "file:///tmp/tmpMrlSjb/components/google-cloud-sdk-cbt-windows-x86-20170424073254.tar.gz", 
        "type": "tar"
      }, 
      "dependencies": [
        "cbt"
      ], 
      "details": {
        "description": "Provides cbt (Windows).", 
        "display_name": "cbt (Windows)"
      }, 
      "id": "cbt-windows-x86", 
      "is_configuration": false, 
      "is_hidden": true, 
      "is_required": false, 
      "platform": {
        "architectures": [
          "x86"
        ], 
        "operating_systems": [
          "WINDOWS"
        ]
      }, 
      "version": {
        "build_number": 20170424073254, 
        "version_string": "0.1.1"
      }
    }, 
    {
      "data": {
        "checksum": "7d7bdd8ddc005a08b33d0c4c67a032f535d20fc5b9ba8ace2f1dbcd9caf76f6a", 
        "contents_checksum": "8dfa31b695bbd46eb9b7a9ac1904de091efdc75f1425d6e69f3e3a4433c2334a", 
        "size": 4078178, 
        "source": "file:///tmp/tmpMrlSjb/components/google-cloud-sdk-cbt-windows-x86_64-20170424073254.tar.gz", 
        "type": "tar"
      }, 
      "dependencies": [
        "cbt"
      ], 
      "details": {
        "description": "Provides cbt (Windows).", 
        "display_name": "cbt (Windows)"
      }, 
      "id": "cbt-windows-x86_64", 
      "is_configuration": false, 
      "is_hidden": true, 
      "is_required": false, 
      "platform": {
        "architectures": [
          "x86_64"
        ], 
        "operating_systems": [
          "WINDOWS"
        ]
      }, 
      "version": {
        "build_number": 20170424073254, 
        "version_string": "0.1.1"
      }
    }, 
    {
      "data": {
        "checksum": "acd59e9c09cb9e2a2ada9cffa77ee0905cdb6b74e795867099b6552376e561b6", 
        "contents_checksum": "d9fbb40bd2e74b7e4e67078905af8c39af39e88e6e0715f5752ff161f402f231", 
        "size": 16186698, 
        "source": "file:///tmp/tmpMrlSjb/components/google-cloud-sdk-cloud-datastore-emulator-20170424073254.tar.gz", 
        "type": "tar"
      }, 
      "dependencies": [
        "core"
      ], 
      "details": {
        "description": "Provides a local emulator of Cloud Datastore.", 
        "display_name": "Cloud Datastore Emulator"
      }, 
      "id": "cloud-datastore-emulator", 
      "is_configuration": false, 
      "is_hidden": false, 
      "is_required": false, 
      "platform": {}, 
      "version": {
        "build_number": 20170424073254, 
        "version_string": "1.2.1"
      }
    }, 
    {
      "data": {
        "checksum": "493db0b4120dc8a4e469cb91cd9563f993d5548cd7c7eb55f1f5682efb91f8ba", 
        "contents_checksum": "54d71d30149163500e172223f77fdcd534e379112a54e6bb7451e8d70d59610e", 
        "size": 6236894, 
        "source": "file:///tmp/tmpMrlSjb/components/google-cloud-sdk-core-20170424073254.tar.gz", 
        "type": "tar"
      }, 
      "dependencies": [
        "gcloud-deps", 
        "windows-ssh-tools", 
        "core-nix", 
        "core-win"
      ], 
      "details": {
        "description": "Handles all core functionality for the Cloud SDK.", 
        "display_name": "Cloud SDK Core Libraries"
      }, 
      "id": "core", 
      "is_configuration": false, 
      "is_hidden": false, 
      "is_required": true, 
      "platform": {}, 
      "version": {
        "build_number": 20170424073254, 
        "version_string": "2017.04.24"
      }
    }, 
    {
      "data": {
        "checksum": "ae8ede3038c1f55f98a91f9c8b9fcbc08c5423e82d6609e0a6597fcff1e884f6", 
        "contents_checksum": "e51cc459dad6997da19b6c4d0a58a39047b37ef3b32dd77e2e77007ce073bf4e", 
        "size": 1366, 
        "source": "file:///tmp/tmpMrlSjb/components/google-cloud-sdk-core-nix-20170424073254.tar.gz", 
        "type": "tar"
      }, 
      "dependencies": [
        "gcloud-deps", 
        "windows-ssh-tools", 
        "core"
      ], 
      "details": {
        "description": "Handles all core functionality for the Cloud SDK.", 
        "display_name": "Cloud SDK Core Libraries (Platform Specific)"
      }, 
      "id": "core-nix", 
      "is_configuration": false, 
      "is_hidden": true, 
      "is_required": true, 
      "platform": {
        "operating_systems": [
          "LINUX", 
          "MACOSX", 
          "CYGWIN", 
          "MSYS"
        ]
      }, 
      "version": {
        "build_number": 20170424073254, 
        "version_string": "2017.04.24"
      }
    }, 
    {
      "data": {
        "checksum": "9ae00bb85812c33824195140587ff47419ef11a0fcba85025232a7fd02994672", 
        "contents_checksum": "aac0372b63a3f15a7c31696bf8748e641801c9b7ccc0c93c6344002d9138ea91", 
        "size": 1865, 
        "source": "file:///tmp/tmpMrlSjb/components/google-cloud-sdk-core-win-20170424073254.tar.gz", 
        "type": "tar"
      }, 
      "dependencies": [
        "gcloud-deps", 
        "windows-ssh-tools", 
        "core"
      ], 
      "details": {
        "description": "Handles all core functionality for the Cloud SDK.", 
        "display_name": "Cloud SDK Core Libraries (Platform Specific)"
      }, 
      "id": "core-win", 
      "is_configuration": false, 
      "is_hidden": true, 
      "is_required": true, 
      "platform": {
        "operating_systems": [
          "WINDOWS"
        ]
      }, 
      "version": {
        "build_number": 20170424073254, 
        "version_string": "2017.04.24"
      }
    }, 
    {
      "data": {
        "checksum": "8dac9f4aa7f2565473bf72bc7d240f4d57f3e5a237b91ae94874e328530f05f6", 
        "contents_checksum": "a0f8bccd6a35b1ac56988661001cd382078b2a9872bfcb3e6972ccdd91053b3f", 
        "size": 13451, 
        "source": "file:///tmp/tmpMrlSjb/components/google-cloud-sdk-datalab-20170424073254.tar.gz", 
        "type": "tar"
      }, 
      "dependencies": [
        "core", 
        "gcloud", 
        "beta", 
        "alpha", 
        "datalab-nix", 
        "datalab-win"
      ], 
      "details": {
        "description": "Provides the datalab tool for managing Google Cloud Datalab instances.", 
        "display_name": "Cloud Datalab Command Line Tool"
      }, 
      "id": "datalab", 
      "is_configuration": false, 
      "is_hidden": false, 
      "is_required": false, 
      "platform": {}, 
      "version": {
        "build_number": 20170424073254, 
        "version_string": "20170330"
      }
    }, 
    {
      "data": {
        "checksum": "4ceee4d520f5e09e7edac66f47d6b91c45129b2242b38b9eb69ab175dd3243bb", 
        "contents_checksum": "0db49657d4e170546ed55eba4542ce05027ff1d5705788e703da583f0fa95e8c", 
        "size": 1177, 
        "source": "file:///tmp/tmpMrlSjb/components/google-cloud-sdk-datalab-nix-20170424073254.tar.gz", 
        "type": "tar"
      }, 
      "dependencies": [
        "core", 
        "gcloud", 
        "beta", 
        "alpha", 
        "datalab"
      ], 
      "details": {
        "description": "Provides the datalab tool for managing Google Cloud Datalab instances.", 
        "display_name": "Cloud Datalab Command Line Tool (Platform Specific)"
      }, 
      "id": "datalab-nix", 
      "is_configuration": false, 
      "is_hidden": true, 
      "is_required": false, 
      "platform": {
        "operating_systems": [
          "LINUX", 
          "MACOSX", 
          "CYGWIN", 
          "MSYS"
        ]
      }, 
      "version": {
        "build_number": 20170424073254, 
        "version_string": "20170330"
      }
    }, 
    {
      "data": {
        "checksum": "7a57a36ebaeaa98fb0721b73a631e0f53d577aa371a91bbb0b475656ee43655e", 
        "contents_checksum": "dd1aa6709ba5c603a21ca8de1af46570243b5000708a8ed435b3e54fb2ed0dc6", 
        "size": 856, 
        "source": "file:///tmp/tmpMrlSjb/components/google-cloud-sdk-datalab-win-20170424073254.tar.gz", 
        "type": "tar"
      }, 
      "dependencies": [
        "core", 
        "gcloud", 
        "beta", 
        "alpha", 
        "datalab"
      ], 
      "details": {
        "description": "Provides the datalab tool for managing Google Cloud Datalab instances.", 
        "display_name": "Cloud Datalab Command Line Tool (Platform Specific)"
      }, 
      "id": "datalab-win", 
      "is_configuration": false, 
      "is_hidden": true, 
      "is_required": false, 
      "platform": {
        "operating_systems": [
          "WINDOWS"
        ]
      }, 
      "version": {
        "build_number": 20170424073254, 
        "version_string": "20170330"
      }
    }, 
    {
      "dependencies": [
        "docker-credential-gcr-linux-x86", 
        "docker-credential-gcr-linux-x86_64", 
        "docker-credential-gcr-darwin-x86", 
        "docker-credential-gcr-darwin-x86_64", 
        "docker-credential-gcr-windows-x86", 
        "docker-credential-gcr-windows-x86_64"
      ], 
      "details": {
        "description": "Provides docker-credential-gcr executable.", 
        "display_name": "Google Container Registry's Docker credential helper"
      }, 
      "id": "docker-credential-gcr", 
      "is_configuration": false, 
      "is_hidden": false, 
      "is_required": false, 
      "platform": {
        "architectures": [
          "x86", 
          "x86_64"
        ], 
        "operating_systems": [
          "LINUX", 
          "MACOSX", 
          "WINDOWS"
        ]
      }, 
      "version": {
        "build_number": 0, 
        "version_string": ""
      }
    }, 
    {
      "data": {
        "checksum": "cfc8c35a630afbc127bb47abc1ab2f7781756d75b9a4498b3164cb2280c108cd", 
        "contents_checksum": "8ac29984b4ab5df319ce1ad1d06e5c50d984bf3694ae3c7f9f83c900f00eddbc", 
        "size": 3313628, 
        "source": "file:///tmp/tmpMrlSjb/components/google-cloud-sdk-docker-credential-gcr-darwin-x86-20170424073254.tar.gz", 
        "type": "tar"
      }, 
      "dependencies": [
        "docker-credential-gcr"
      ], 
      "details": {
        "description": "Provides docker-credential-gcr. See https://github.com/GoogleCloudPlatform/docker-credential-gcr", 
        "display_name": "docker-credential-gcr (Mac OS X, x86)"
      }, 
      "id": "docker-credential-gcr-darwin-x86", 
      "is_configuration": false, 
      "is_hidden": true, 
      "is_required": false, 
      "platform": {
        "architectures": [
          "x86"
        ], 
        "operating_systems": [
          "MACOSX"
        ]
      }, 
      "version": {
        "build_number": 20170424073254, 
        "version_string": "1.3.4"
      }
    }, 
    {
      "data": {
        "checksum": "bc9ee4f68243eb50c45f9fe58f1945d94ce8034ed4e4083f3d220ef348c602b0", 
        "contents_checksum": "e18c6cbf4066dbd8dd36bef91483d18b6b903a638ee32586716b899256d0aaff", 
        "size": 3528412, 
        "source": "file:///tmp/tmpMrlSjb/components/google-cloud-sdk-docker-credential-gcr-darwin-x86_64-20170424073254.tar.gz", 
        "type": "tar"
      }, 
      "dependencies": [
        "docker-credential-gcr"
      ], 
      "details": {
        "description": "Provides docker-credential-gcr. See https://github.com/GoogleCloudPlatform/docker-credential-gcr", 
        "display_name": "docker-credential-gcr (Mac OS X, x86_64)"
      }, 
      "id": "docker-credential-gcr-darwin-x86_64", 
      "is_configuration": false, 
      "is_hidden": true, 
      "is_required": false, 
      "platform": {
        "architectures": [
          "x86_64"
        ], 
        "operating_systems": [
          "MACOSX"
        ]
      }, 
      "version": {
        "build_number": 20170424073254, 
        "version_string": "1.3.4"
      }
    }, 
    {
      "data": {
        "checksum": "ee889da9af992a78af29f3599d397bba0293d333cbbe15eaa084a6f138084427", 
        "contents_checksum": "1a7df9ceb7cb2e673f0b6a2bc2abc1ea8ee27a31e19eb208e5a15793bc43498b", 
        "size": 3331878, 
        "source": "file:///tmp/tmpMrlSjb/components/google-cloud-sdk-docker-credential-gcr-linux-x86-20170424073254.tar.gz", 
        "type": "tar"
      }, 
      "dependencies": [
        "docker-credential-gcr"
      ], 
      "details": {
        "description": "Provides docker-credential-gcr. See https://github.com/GoogleCloudPlatform/docker-credential-gcr", 
        "display_name": "docker-credential-gcr (Linux, x86)"
      }, 
      "id": "docker-credential-gcr-linux-x86", 
      "is_configuration": false, 
      "is_hidden": true, 
      "is_required": false, 
      "platform": {
        "architectures": [
          "x86"
        ], 
        "operating_systems": [
          "LINUX"
        ]
      }, 
      "version": {
        "build_number": 20170424073254, 
        "version_string": "1.3.4"
      }
    }, 
    {
      "data": {
        "checksum": "3be0b13f841c2ec79e09da139ac0cac9208dcf8d751538673185f7f9df445086", 
        "contents_checksum": "547e9a644f500e5ab6903d7dc421aab54f4e63e6c51d41d2c4e43516e866c395", 
        "size": 3551712, 
        "source": "file:///tmp/tmpMrlSjb/components/google-cloud-sdk-docker-credential-gcr-linux-x86_64-20170424073254.tar.gz", 
        "type": "tar"
      }, 
      "dependencies": [
        "docker-credential-gcr"
      ], 
      "details": {
        "description": "Provides docker-credential-gcr. See https://github.com/GoogleCloudPlatform/docker-credential-gcr", 
        "display_name": "docker-credential-gcr (Linux, x86_64)"
      }, 
      "id": "docker-credential-gcr-linux-x86_64", 
      "is_configuration": false, 
      "is_hidden": true, 
      "is_required": false, 
      "platform": {
        "architectures": [
          "x86_64"
        ], 
        "operating_systems": [
          "LINUX"
        ]
      }, 
      "version": {
        "build_number": 20170424073254, 
        "version_string": "1.3.4"
      }
    }, 
    {
      "data": {
        "checksum": "184a4c4717306d7e009cf3cd4730c48863ae612f4073293b724caeb22005f9f7", 
        "contents_checksum": "5727c214444e1a21e72c03964daad9dfe3bdad583d0de0be1ff6ab99e24ffcab", 
        "size": 3276053, 
        "source": "file:///tmp/tmpMrlSjb/components/google-cloud-sdk-docker-credential-gcr-windows-x86-20170424073254.tar.gz", 
        "type": "tar"
      }, 
      "dependencies": [
        "docker-credential-gcr"
      ], 
      "details": {
        "description": "Provides docker-credential-gcr. See https://github.com/GoogleCloudPlatform/docker-credential-gcr", 
        "display_name": "docker-credential-gcr (Windows, x86)"
      }, 
      "id": "docker-credential-gcr-windows-x86", 
      "is_configuration": false, 
      "is_hidden": true, 
      "is_required": false, 
      "platform": {
        "architectures": [
          "x86"
        ], 
        "operating_systems": [
          "WINDOWS"
        ]
      }, 
      "version": {
        "build_number": 20170424073254, 
        "version_string": "1.3.4"
      }
    }, 
    {
      "data": {
        "checksum": "f7cad37558854d7a7ab48c66bd237ef32d83aa42a6f1cfa577fcd3b03693b543", 
        "contents_checksum": "96a97a663df88086d641441c73c3721a59889a2c51cd00a6f6f0f0d191b103b8", 
        "size": 3492761, 
        "source": "file:///tmp/tmpMrlSjb/components/google-cloud-sdk-docker-credential-gcr-windows-x86_64-20170424073254.tar.gz", 
        "type": "tar"
      }, 
      "dependencies": [
        "docker-credential-gcr"
      ], 
      "details": {
        "description": "Provides docker-credential-gcr. See https://github.com/GoogleCloudPlatform/docker-credential-gcr", 
        "display_name": "docker-credential-gcr (Windows, x86_64)"
      }, 
      "id": "docker-credential-gcr-windows-x86_64", 
      "is_configuration": false, 
      "is_hidden": true, 
      "is_required": false, 
      "platform": {
        "architectures": [
          "x86_64"
        ], 
        "operating_systems": [
          "WINDOWS"
        ]
      }, 
      "version": {
        "build_number": 20170424073254, 
        "version_string": "1.3.4"
      }
    }, 
    {
      "dependencies": [
        "emulator-reverse-proxy-linux-x86_64", 
        "emulator-reverse-proxy-darwin-x86_64", 
        "emulator-reverse-proxy-windows-x86_64", 
        "emulator-reverse-proxy-nossl-x86"
      ], 
      "details": {
        "description": "Provides emulator-reverse-proxy executable.", 
        "display_name": "Emulator Reverse Proxy"
      }, 
      "id": "emulator-reverse-proxy", 
      "is_configuration": false, 
      "is_hidden": false, 
      "is_required": false, 
      "platform": {
        "architectures": [
          "x86", 
          "x86_64"
        ], 
        "operating_systems": [
          "LINUX", 
          "MACOSX", 
          "WINDOWS"
        ]
      }, 
      "version": {
        "build_number": 0, 
        "version_string": ""
      }
    }, 
    {
      "data": {
        "checksum": "3f2573890bf37fa8b5a362208d37881c24aee93aed538b6322fd6ddf24380604", 
        "contents_checksum": "3b391d57a3b0ec7b1d3e598f20d6ab66565cc4dc58a9b2fc8d3d052827ddeb32", 
        "size": 15162439, 
        "source": "file:///tmp/tmpMrlSjb/components/google-cloud-sdk-emulator-reverse-proxy-darwin-x86_64-20170424073254.tar.gz", 
        "type": "tar"
      }, 
      "dependencies": [
        "emulator-reverse-proxy"
      ], 
      "details": {
        "description": "Provides emulator-reverse-proxy.", 
        "display_name": "emulator-reverse-proxy (Mac OS X, x86_64)"
      }, 
      "id": "emulator-reverse-proxy-darwin-x86_64", 
      "is_configuration": false, 
      "is_hidden": true, 
      "is_required": false, 
      "platform": {
        "architectures": [
          "x86_64"
        ], 
        "operating_systems": [
          "MACOSX"
        ]
      }, 
      "version": {
        "build_number": 20170424073254, 
        "version_string": "0.0.1"
      }
    }, 
    {
      "data": {
        "checksum": "4fad72dcf25765c482127b286c5f3ddd1d06dc7dce24a0197c1cb8ade5b2814b", 
        "contents_checksum": "7960483db214afabd463d2e7c08d6862982c8d468e7ef169c0d00b4788647bdf", 
        "size": 15182482, 
        "source": "file:///tmp/tmpMrlSjb/components/google-cloud-sdk-emulator-reverse-proxy-linux-x86_64-20170424073254.tar.gz", 
        "type": "tar"
      }, 
      "dependencies": [
        "emulator-reverse-proxy"
      ], 
      "details": {
        "description": "Provides emulator-reverse-proxy.", 
        "display_name": "emulator-reverse-proxy (Linux, x86_64)"
      }, 
      "id": "emulator-reverse-proxy-linux-x86_64", 
      "is_configuration": false, 
      "is_hidden": true, 
      "is_required": false, 
      "platform": {
        "architectures": [
          "x86_64"
        ], 
        "operating_systems": [
          "LINUX"
        ]
      }, 
      "version": {
        "build_number": 20170424073254, 
        "version_string": "0.0.1"
      }
    }, 
    {
      "data": {
        "checksum": "91c18d9008558b0c00b87cc709ee947db14cc29ba22dfa3514b6e8c3b50f4ccb", 
        "contents_checksum": "35be2b4dee135cbfd50b45c4662e93440cad0904b2b78d8567680391cde7ba90", 
        "size": 15101509, 
        "source": "file:///tmp/tmpMrlSjb/components/google-cloud-sdk-emulator-reverse-proxy-nossl-x86-20170424073254.tar.gz", 
        "type": "tar"
      }, 
      "dependencies": [
        "emulator-reverse-proxy"
      ], 
      "details": {
        "description": "Provides emulator-reverse-proxy.", 
        "display_name": "emulator-reverse-proxy (nossl, x86)"
      }, 
      "id": "emulator-reverse-proxy-nossl-x86", 
      "is_configuration": false, 
      "is_hidden": true, 
      "is_required": false, 
      "platform": {
        "architectures": [
          "x86"
        ], 
        "operating_systems": [
          "LINUX", 
          "MACOSX", 
          "WINDOWS"
        ]
      }, 
      "version": {
        "build_number": 20170424073254, 
        "version_string": "0.0.1"
      }
    }, 
    {
      "data": {
        "checksum": "ccd1fc97e30393999350e0f49e8d3dc6e7f5c3aa955b97a1d01c9e2ffc543681", 
        "contents_checksum": "d6e70b96adc1e95d163e6936ac132f4396a797eecbd360ee19efa2283c65375e", 
        "size": 15166625, 
        "source": "file:///tmp/tmpMrlSjb/components/google-cloud-sdk-emulator-reverse-proxy-windows-x86_64-20170424073254.tar.gz", 
        "type": "tar"
      }, 
      "dependencies": [
        "emulator-reverse-proxy"
      ], 
      "details": {
        "description": "Provides emulator-reverse-proxy.", 
        "display_name": "emulator-reverse-proxy (Windows, x86_64)"
      }, 
      "id": "emulator-reverse-proxy-windows-x86_64", 
      "is_configuration": false, 
      "is_hidden": true, 
      "is_required": false, 
      "platform": {
        "architectures": [
          "x86_64"
        ], 
        "operating_systems": [
          "WINDOWS"
        ]
      }, 
      "version": {
        "build_number": 20170424073254, 
        "version_string": "0.0.1"
      }
    }, 
    {
      "data": {
        "checksum": "ef063cbe25d7364dda901e4fd332bce829cb53cc7c6243d49cbe7e74e028a949", 
        "contents_checksum": "fb1f60d9046525d7cff83250b0b8940f18e4a758a04d26cdfb22a8063476b3b0", 
        "size": 39934172, 
        "source": "file:///tmp/tmpMrlSjb/components/google-cloud-sdk-gcd-emulator-20170424073254.tar.gz", 
        "type": "tar"
      }, 
      "dependencies": [
        "core"
      ], 
      "details": {
        "description": "Provides the legacy gcd tool for local Cloud Datastore emulation. Supports Cloud Datastore API v1beta2.", 
        "display_name": "Cloud Datastore Emulator (Legacy)"
      }, 
      "id": "gcd-emulator", 
      "is_configuration": false, 
      "is_hidden": false, 
      "is_required": false, 
      "platform": {}, 
      "version": {
        "build_number": 20170424073254, 
        "version_string": "v1beta3-1.0.0"
      }
    }, 
    {
      "dependencies": [
        "core"
      ], 
      "details": {
        "description": "Default set of gcloud commands.", 
        "display_name": "Default set of gcloud commands"
      }, 
      "id": "gcloud", 
      "is_configuration": false, 
      "is_hidden": false, 
      "is_required": false, 
      "platform": {}, 
      "version": {
        "build_number": 0, 
        "version_string": ""
      }
    }, 
    {
      "data": {
        "checksum": "d3a1d0e67074ad74a91efa0ae71b76f544f8c2f817c85818fe7fa07601e408ad", 
        "contents_checksum": "00287067cb868eb167b4e585f40ca6d5566cdd1942439684d2a70d1e4eaa3572", 
        "size": 1564504, 
        "source": "file:///tmp/tmpMrlSjb/components/google-cloud-sdk-gcloud-deps-20170424073254.tar.gz", 
        "type": "tar"
      }, 
      "dependencies": [
        "core", 
        "gcloud-deps-linux-x86", 
        "gcloud-deps-linux-x86_64", 
        "gcloud-deps-darwin-x86", 
        "gcloud-deps-darwin-x86_64", 
        "gcloud-deps-windows-x86", 
        "gcloud-deps-windows-x86_64"
      ], 
      "details": {
        "description": "Set of third_party gcloud cli dependencies.", 
        "display_name": "gcloud cli dependencies"
      }, 
      "id": "gcloud-deps", 
      "is_configuration": false, 
      "is_hidden": true, 
      "is_required": false, 
      "platform": {
        "architectures": [
          "x86", 
          "x86_64"
        ], 
        "operating_systems": [
          "LINUX", 
          "MACOSX", 
          "WINDOWS"
        ]
      }, 
      "version": {
        "build_number": 20170424073254, 
        "version_string": "2017.04.24"
      }
    }, 
    {
      "data": {
        "checksum": "9da1e011ff2ac88443468f839eddc80392a7ab41de39fcb4d5b80cb0aa162f7e", 
        "contents_checksum": "2d1b8ff85773acbd32f5ad11357164710f2b6a1db2ea472c6af7574733ed2eff", 
        "size": 2212447, 
        "source": "file:///tmp/tmpMrlSjb/components/google-cloud-sdk-gcloud-deps-darwin-x86-20170424073254.tar.gz", 
        "type": "tar"
      }, 
      "dependencies": [
        "gcloud-deps"
      ], 
      "details": {
        "description": "Provides gcloud dependencies.", 
        "display_name": "gcloud-deps (Mac OS X, x86)"
      }, 
      "id": "gcloud-deps-darwin-x86", 
      "is_configuration": false, 
      "is_hidden": true, 
      "is_required": false, 
      "platform": {
        "architectures": [
          "x86"
        ], 
        "operating_systems": [
          "MACOSX"
        ]
      }, 
      "version": {
        "build_number": 20170424073254, 
        "version_string": "2017.04.24"
      }
    }, 
    {
      "data": {
        "checksum": "9da1e011ff2ac88443468f839eddc80392a7ab41de39fcb4d5b80cb0aa162f7e", 
        "contents_checksum": "2d1b8ff85773acbd32f5ad11357164710f2b6a1db2ea472c6af7574733ed2eff", 
        "size": 2212447, 
        "source": "file:///tmp/tmpMrlSjb/components/google-cloud-sdk-gcloud-deps-darwin-x86_64-20170424073254.tar.gz", 
        "type": "tar"
      }, 
      "dependencies": [
        "gcloud-deps"
      ], 
      "details": {
        "description": "Provides gcloud dependencies.", 
        "display_name": "gcloud-deps (Mac OS X, x86_64)"
      }, 
      "id": "gcloud-deps-darwin-x86_64", 
      "is_configuration": false, 
      "is_hidden": true, 
      "is_required": false, 
      "platform": {
        "architectures": [
          "x86_64"
        ], 
        "operating_systems": [
          "MACOSX"
        ]
      }, 
      "version": {
        "build_number": 20170424073254, 
        "version_string": "2017.04.24"
      }
    }, 
    {
      "data": {
        "checksum": "cdf26168fffbc2eb7419b50262fc74c5c5974aae5e5acda6e82f47ccedf02fa4", 
        "contents_checksum": "e49a32dc573701ac3299a7f27cb8ea8721f4a0576eb765ac66d52ba347d31192", 
        "size": 4554856, 
        "source": "file:///tmp/tmpMrlSjb/components/google-cloud-sdk-gcloud-deps-linux-x86-20170424073254.tar.gz", 
        "type": "tar"
      }, 
      "dependencies": [
        "gcloud-deps"
      ], 
      "details": {
        "description": "Provides gcloud dependencies.", 
        "display_name": "gcloud-deps (Linux, x86)"
      }, 
      "id": "gcloud-deps-linux-x86", 
      "is_configuration": false, 
      "is_hidden": true, 
      "is_required": false, 
      "platform": {
        "architectures": [
          "x86"
        ], 
        "operating_systems": [
          "LINUX"
        ]
      }, 
      "version": {
        "build_number": 20170424073254, 
        "version_string": "2017.04.24"
      }
    }, 
    {
      "data": {
        "checksum": "7c22a9976e95be8b0289f9d84d4935bd8d436187208d981d426ecb56bca1f577", 
        "contents_checksum": "a38ca74bec4b27d1af25ce53e9b7f4f841549588f75b11e361c6842d51a20b5c", 
        "size": 4130970, 
        "source": "file:///tmp/tmpMrlSjb/components/google-cloud-sdk-gcloud-deps-linux-x86_64-20170424073254.tar.gz", 
        "type": "tar"
      }, 
      "dependencies": [
        "gcloud-deps"
      ], 
      "details": {
        "description": "Provides gcloud dependencies.", 
        "display_name": "gcloud-deps (Linux, x86_64)"
      }, 
      "id": "gcloud-deps-linux-x86_64", 
      "is_configuration": false, 
      "is_hidden": true, 
      "is_required": false, 
      "platform": {
        "architectures": [
          "x86_64"
        ], 
        "operating_systems": [
          "LINUX"
        ]
      }, 
      "version": {
        "build_number": 20170424073254, 
        "version_string": "2017.04.24"
      }
    }, 
    {
      "data": {
        "checksum": "ba8f88792dfc554251b87fa82a364e1f1f89280baab404f5e006cb8cfa1ab2eb", 
        "contents_checksum": "dd5374f824ba1db09281b7ee055185663201e62a5a35d8725048dbfdefc99b0e", 
        "size": 1072611, 
        "source": "file:///tmp/tmpMrlSjb/components/google-cloud-sdk-gcloud-deps-windows-x86-20170424073254.tar.gz", 
        "type": "tar"
      }, 
      "dependencies": [
        "gcloud-deps"
      ], 
      "details": {
        "description": "Provides gcloud dependencies (Windows).", 
        "display_name": "gcloud-deps (Windows)"
      }, 
      "id": "gcloud-deps-windows-x86", 
      "is_configuration": false, 
      "is_hidden": true, 
      "is_required": false, 
      "platform": {
        "architectures": [
          "x86"
        ], 
        "operating_systems": [
          "WINDOWS"
        ]
      }, 
      "version": {
        "build_number": 20170424073254, 
        "version_string": "2017.04.24"
      }
    }, 
    {
      "data": {
        "checksum": "79ffd389e6fdd9eadc1c4421f2b56e95859abf454c2ea038fb2df7889c535fbe", 
        "contents_checksum": "4cad9ceb3ec142dc2f8fc35edd77fbfa43e4d8b4b4137029875814c225b69e00", 
        "size": 1050054, 
        "source": "file:///tmp/tmpMrlSjb/components/google-cloud-sdk-gcloud-deps-windows-x86_64-20170424073254.tar.gz", 
        "type": "tar"
      }, 
      "dependencies": [
        "gcloud-deps"
      ], 
      "details": {
        "description": "Provides gcloud dependencies (Windows).", 
        "display_name": "gcloud-deps (Windows)"
      }, 
      "id": "gcloud-deps-windows-x86_64", 
      "is_configuration": false, 
      "is_hidden": true, 
      "is_required": false, 
      "platform": {
        "architectures": [
          "x86_64"
        ], 
        "operating_systems": [
          "WINDOWS"
        ]
      }, 
      "version": {
        "build_number": 20170424073254, 
        "version_string": "2017.04.24"
      }
    }, 
    {
      "data": {
        "checksum": "4fa374b99c4ba65e530ddb566cc571d0f4e19410b47c0cc502a8d1d7e0682b2c", 
        "contents_checksum": "206b64535f0896eb5602881a374280c69abe10aa07d7b9bf1ec023f2d1931b89", 
        "size": 3016649, 
        "source": "file:///tmp/tmpMrlSjb/components/google-cloud-sdk-gsutil-20170424073254.tar.gz", 
        "type": "tar"
      }, 
      "dependencies": [
        "core", 
        "gsutil-nix", 
        "gsutil-win"
      ], 
      "details": {
        "description": "Provides the gsutil tool for interacting with Google Cloud Storage.", 
        "display_name": "Cloud Storage Command Line Tool"
      }, 
      "id": "gsutil", 
      "is_configuration": false, 
      "is_hidden": false, 
      "is_required": false, 
      "platform": {}, 
      "version": {
        "build_number": 20170424073254, 
        "version_string": "4.25"
      }
    }, 
    {
      "data": {
        "checksum": "5f056ed5dae4f36e027107fc0e0c561839ff1dc5491ae57f709710f736893603", 
        "contents_checksum": "9af0b2fae82c3623e0b90fe142b461f67bc8aa82c3c5b78083cea9f0de580188", 
        "size": 1178, 
        "source": "file:///tmp/tmpMrlSjb/components/google-cloud-sdk-gsutil-nix-20170424073254.tar.gz", 
        "type": "tar"
      }, 
      "dependencies": [
        "core", 
        "gsutil"
      ], 
      "details": {
        "description": "Provides the gsutil tool for interacting with Google Cloud Storage.", 
        "display_name": "Cloud Storage Command Line Tool (Platform Specific)"
      }, 
      "id": "gsutil-nix", 
      "is_configuration": false, 
      "is_hidden": true, 
      "is_required": false, 
      "platform": {
        "operating_systems": [
          "LINUX", 
          "MACOSX", 
          "CYGWIN", 
          "MSYS"
        ]
      }, 
      "version": {
        "build_number": 20170424073254, 
        "version_string": "4.25"
      }
    }, 
    {
      "data": {
        "checksum": "69895040c4495b9142f4154e1ef26ca4a934a98520d7cacfadc45a86e4ab5bb0", 
        "contents_checksum": "b7163ab2626183c5bbc10963a73a388f6b4d94f87cb2c09670dc17a066d08dcb", 
        "size": 1707, 
        "source": "file:///tmp/tmpMrlSjb/components/google-cloud-sdk-gsutil-win-20170424073254.tar.gz", 
        "type": "tar"
      }, 
      "dependencies": [
        "core", 
        "gsutil"
      ], 
      "details": {
        "description": "Provides the gsutil tool for interacting with Google Cloud Storage.", 
        "display_name": "Cloud Storage Command Line Tool (Platform Specific)"
      }, 
      "id": "gsutil-win", 
      "is_configuration": false, 
      "is_hidden": true, 
      "is_required": false, 
      "platform": {
        "operating_systems": [
          "WINDOWS"
        ]
      }, 
      "version": {
        "build_number": 20170424073254, 
        "version_string": "4.25"
      }
    }, 
    {
      "dependencies": [
        "kubectl-linux-x86", 
        "kubectl-linux-x86_64", 
        "kubectl-darwin-x86", 
        "kubectl-darwin-x86_64", 
        "kubectl-windows-x86", 
        "kubectl-windows-x86_64"
      ], 
      "details": {
        "description": "Provides kubectl executable.", 
        "display_name": "kubectl"
      }, 
      "id": "kubectl", 
      "is_configuration": false, 
      "is_hidden": false, 
      "is_required": false, 
      "platform": {
        "architectures": [
          "x86", 
          "x86_64"
        ], 
        "operating_systems": [
          "LINUX", 
          "MACOSX", 
          "WINDOWS"
        ]
      }, 
      "version": {
        "build_number": 0, 
        "version_string": ""
      }
    }, 
    {
      "data": {
        "checksum": "f5e21d53e67018894f312d7f0babcae53ff5fb1f5e6530a181dc328f3c6d0e67", 
        "contents_checksum": "130d8c63e50c427a3c47bb47bfd4b84bb9d936b7f04bb623dc76de4acd42af80", 
        "size": 14789763, 
        "source": "file:///tmp/tmpMrlSjb/components/google-cloud-sdk-kubectl-darwin-x86-20170424073254.tar.gz", 
        "type": "tar"
      }, 
      "dependencies": [
        "kubectl"
      ], 
      "details": {
        "description": "Provides kubectl.", 
        "display_name": "kubectl (Mac OS X, x86)"
      }, 
      "id": "kubectl-darwin-x86", 
      "is_configuration": false, 
      "is_hidden": true, 
      "is_required": false, 
      "platform": {
        "architectures": [
          "x86"
        ], 
        "operating_systems": [
          "MACOSX"
        ]
      }, 
      "version": {
        "build_number": 20170424073254, 
        "version_string": "1.6.2"
      }
    }, 
    {
      "data": {
        "checksum": "8448aa0600da16c0505009cf4e56e7892eab063e24dfbb204d2d83e1f1d3c6cc", 
        "contents_checksum": "6ec9870712ed3ab7868a9ef7be6910cee5f33a1801f1b1af0ae547256af06924", 
        "size": 15503138, 
        "source": "file:///tmp/tmpMrlSjb/components/google-cloud-sdk-kubectl-darwin-x86_64-20170424073254.tar.gz", 
        "type": "tar"
      }, 
      "dependencies": [
        "kubectl"
      ], 
      "details": {
        "description": "Provides kubectl.", 
        "display_name": "kubectl (Mac OS X, x86_64)"
      }, 
      "id": "kubectl-darwin-x86_64", 
      "is_configuration": false, 
      "is_hidden": true, 
      "is_required": false, 
      "platform": {
        "architectures": [
          "x86_64"
        ], 
        "operating_systems": [
          "MACOSX"
        ]
      }, 
      "version": {
        "build_number": 20170424073254, 
        "version_string": "1.6.2"
      }
    }, 
    {
      "data": {
        "checksum": "90229a6fa48a01730c3d5e2d823f2127587b9793b938d4169e544a948dabd8b2", 
        "contents_checksum": "ac4be966c1ea79c45d763366c369692fe909d5045e67215aa484accd471d39bf", 
        "size": 14886604, 
        "source": "file:///tmp/tmpMrlSjb/components/google-cloud-sdk-kubectl-linux-x86-20170424073254.tar.gz", 
        "type": "tar"
      }, 
      "dependencies": [
        "kubectl"
      ], 
      "details": {
        "description": "Provides kubectl.", 
        "display_name": "kubectl (Linux, x86)"
      }, 
      "id": "kubectl-linux-x86", 
      "is_configuration": false, 
      "is_hidden": true, 
      "is_required": false, 
      "platform": {
        "architectures": [
          "x86"
        ], 
        "operating_systems": [
          "LINUX"
        ]
      }, 
      "version": {
        "build_number": 20170424073254, 
        "version_string": "1.6.2"
      }
    }, 
    {
      "data": {
        "checksum": "249d4b45f2c21825031f6e4dcede39aac39dbc959cf5a778065be7d882650129", 
        "contents_checksum": "a290372de865cda8038527124d40e5c6b0d7dffc82e1afbcdaf0117f3660e622", 
        "size": 15604850, 
        "source": "file:///tmp/tmpMrlSjb/components/google-cloud-sdk-kubectl-linux-x86_64-20170424073254.tar.gz", 
        "type": "tar"
      }, 
      "dependencies": [
        "kubectl"
      ], 
      "details": {
        "description": "Provides kubectl.", 
        "display_name": "kubectl (Linux, x86_64)"
      }, 
      "id": "kubectl-linux-x86_64", 
      "is_configuration": false, 
      "is_hidden": true, 
      "is_required": false, 
      "platform": {
        "architectures": [
          "x86_64"
        ], 
        "operating_systems": [
          "LINUX"
        ]
      }, 
      "version": {
        "build_number": 20170424073254, 
        "version_string": "1.6.2"
      }
    }, 
    {
      "data": {
        "checksum": "82cd4d1d52f49d8ab365734e61437e2cde8076b5d6165b772a24469fb5552b06", 
        "contents_checksum": "5e738f9eef2374797790a601dcc49c2c834cc7ac1d7b17f498f77d07ffdcfa35", 
        "size": 14891052, 
        "source": "file:///tmp/tmpMrlSjb/components/google-cloud-sdk-kubectl-windows-x86-20170424073254.tar.gz", 
        "type": "tar"
      }, 
      "dependencies": [
        "kubectl"
      ], 
      "details": {
        "description": "Provides kubectl (Windows).", 
        "display_name": "kubectl (Windows)"
      }, 
      "id": "kubectl-windows-x86", 
      "is_configuration": false, 
      "is_hidden": true, 
      "is_required": false, 
      "platform": {
        "architectures": [
          "x86"
        ], 
        "operating_systems": [
          "WINDOWS"
        ]
      }, 
      "version": {
        "build_number": 20170424073254, 
        "version_string": "1.6.2"
      }
    }, 
    {
      "data": {
        "checksum": "8f302d26b524f4e6f79a68a73be2615d41beee0b1e0801d677d75dc9806f2a02", 
        "contents_checksum": "886873a496e6bdd870224e35cc9d8cd3e40d6460b13063a37d592cf84c84bbc6", 
        "size": 15625010, 
        "source": "file:///tmp/tmpMrlSjb/components/google-cloud-sdk-kubectl-windows-x86_64-20170424073254.tar.gz", 
        "type": "tar"
      }, 
      "dependencies": [
        "kubectl"
      ], 
      "details": {
        "description": "Provides kubectl (Windows).", 
        "display_name": "kubectl (Windows)"
      }, 
      "id": "kubectl-windows-x86_64", 
      "is_configuration": false, 
      "is_hidden": true, 
      "is_required": false, 
      "platform": {
        "architectures": [
          "x86_64"
        ], 
        "operating_systems": [
          "WINDOWS"
        ]
      }, 
      "version": {
        "build_number": 20170424073254, 
        "version_string": "1.6.2"
      }
    }, 
    {
      "data": {
        "checksum": "143d586a047c74e65871fa987c4c2eaffd0fa13cd4a06c7e1d2cff51dae1be75", 
        "contents_checksum": "a4413972834d0f4e3c66157c863214727dfc2fee686e97a1292e4bc14fc4dc9c", 
        "size": 6612185, 
        "source": "file:///tmp/tmpMrlSjb/components/google-cloud-sdk-powershell-20170424073254.tar.gz", 
        "type": "tar"
      }, 
      "dependencies": [
        "core"
      ], 
      "details": {
        "description": "PowerShell cmdlets for the Google Cloud Platform.", 
        "display_name": "Cloud Tools for PowerShell"
      }, 
      "id": "powershell", 
      "is_configuration": false, 
      "is_hidden": true, 
      "is_required": false, 
      "platform": {
        "architectures": [
          "x86", 
          "x86_64"
        ], 
        "operating_systems": [
          "WINDOWS"
        ]
      }, 
      "version": {
        "build_number": 20170424073254, 
        "version_string": "1.0.0.5"
      }
    }, 
    {
      "data": {
        "checksum": "c949ef3f7312112f6a7bf31276f767e5afa867d6ad688e354ba5035d8279a6e3", 
        "contents_checksum": "f403c1f8c1e4d7c2c567e2189fbcace34fbe469c1debcae637c595b8a85f7fd8", 
        "size": 22024930, 
        "source": "file:///tmp/tmpMrlSjb/components/google-cloud-sdk-pubsub-emulator-20170424073254.tar.gz", 
        "type": "tar"
      }, 
      "dependencies": [
        "core"
      ], 
      "details": {
        "description": "Provides the Pub/Sub emulator.", 
        "display_name": "Cloud Pub/Sub Emulator"
      }, 
      "id": "pubsub-emulator", 
      "is_configuration": false, 
      "is_hidden": false, 
      "is_required": false, 
      "platform": {}, 
      "version": {
        "build_number": 20170424073254, 
        "version_string": "2017.04.24"
      }
    }, 
    {
      "data": {
        "checksum": "b219ff606c7cf476fc60c28c69d096923e4a5e1f235f4ca26e31a5d2ed48c2d6", 
        "contents_checksum": "9a3c8c34f4eea4f12da888642c0f26c85344e0c192d67577aa3eb9e2f028f34b", 
        "size": 16097508, 
        "source": "file:///tmp/tmpMrlSjb/components/google-cloud-sdk-tests-20170424073254.tar.gz", 
        "type": "tar"
      }, 
      "dependencies": [
        "alpha", 
        "app-engine-go", 
        "app-engine-go-darwin-x86", 
        "app-engine-go-darwin-x86_64", 
        "app-engine-go-linux-x86", 
        "app-engine-go-linux-x86_64", 
        "app-engine-go-windows-x86", 
        "app-engine-go-windows-x86_64", 
        "app-engine-grpc", 
        "app-engine-grpc-darwin-x86_64", 
        "app-engine-grpc-linux-x86_64", 
        "app-engine-grpc-windows-x86_64", 
        "app-engine-java", 
        "app-engine-php", 
        "app-engine-php-darwin", 
        "app-engine-php-windows", 
        "app-engine-python", 
        "app-engine-python-extras", 
        "beta", 
        "bigtable", 
        "bigtable-darwin-x86", 
        "bigtable-darwin-x86_64", 
        "bigtable-linux-x86", 
        "bigtable-linux-x86_64", 
        "bq", 
        "broker", 
        "broker-darwin-x86", 
        "broker-darwin-x86_64", 
        "broker-linux-x86", 
        "broker-linux-x86_64", 
        "broker-windows-x86", 
        "broker-windows-x86_64", 
        "bundled-python", 
        "cbt", 
        "cbt-darwin-x86", 
        "cbt-darwin-x86_64", 
        "cbt-linux-x86", 
        "cbt-linux-x86_64", 
        "cbt-windows-x86", 
        "cbt-windows-x86_64", 
        "cloud-datastore-emulator", 
        "core", 
        "datalab", 
        "docker-credential-gcr", 
        "docker-credential-gcr-darwin-x86", 
        "docker-credential-gcr-darwin-x86_64", 
        "docker-credential-gcr-linux-x86", 
        "docker-credential-gcr-linux-x86_64", 
        "docker-credential-gcr-windows-x86", 
        "docker-credential-gcr-windows-x86_64", 
        "emulator-reverse-proxy", 
        "emulator-reverse-proxy-darwin-x86_64", 
        "emulator-reverse-proxy-linux-x86_64", 
        "emulator-reverse-proxy-nossl-x86", 
        "emulator-reverse-proxy-windows-x86_64", 
        "gcd-emulator", 
        "gcloud", 
        "gcloud-deps", 
        "gcloud-deps-darwin-x86", 
        "gcloud-deps-darwin-x86_64", 
        "gcloud-deps-linux-x86", 
        "gcloud-deps-linux-x86_64", 
        "gcloud-deps-windows-x86", 
        "gcloud-deps-windows-x86_64", 
        "gsutil", 
        "kubectl", 
        "kubectl-darwin-x86", 
        "kubectl-darwin-x86_64", 
        "kubectl-linux-x86", 
        "kubectl-linux-x86_64", 
        "kubectl-windows-x86", 
        "kubectl-windows-x86_64", 
        "powershell", 
        "pubsub-emulator", 
        "windows-ssh-tools"
      ], 
      "details": {
        "description": "Collection of tests used to verity Cloud SDK", 
        "display_name": "Cloud SDK tests"
      }, 
      "id": "tests", 
      "is_configuration": false, 
      "is_hidden": true, 
      "is_required": false, 
      "platform": {}, 
      "version": {
        "build_number": 20170424073254, 
        "version_string": "2017.04.24"
      }
    }, 
    {
      "data": {
        "checksum": "b690c35329ef1dcba4281e2f27c51e212043faafd78397894ee8d3361f749502", 
        "contents_checksum": "d4de84e948dec607c354b3ab1a977674e6fec995edd4496435831c32806ebae1", 
        "size": 1915733, 
        "source": "file:///tmp/tmpMrlSjb/components/google-cloud-sdk-windows-ssh-tools-20170424073254.tar.gz", 
        "type": "tar"
      }, 
      "dependencies": [], 
      "details": {
        "description": "Provides Windows command line ssh tools.", 
        "display_name": "Windows command line ssh tools"
      }, 
      "id": "windows-ssh-tools", 
      "is_configuration": false, 
      "is_hidden": true, 
      "is_required": false, 
      "platform": {
        "operating_systems": [
          "WINDOWS"
        ]
      }, 
      "version": {
        "build_number": 20170424073254, 
        "version_string": "2017.04.24"
      }
    }
  ], 
  "gcloud_rel_path": "lib/gcloud.py", 
  "notifications": [
    {
      "condition": {
        "check_components": true
      }, 
      "id": "default", 
      "notification": {}, 
      "trigger": {
        "frequency": 86400
      }
    }
  ], 
  "post_processing_command": "components post-process", 
  "release_notes_url": "file:///tmp/tmpMrlSjb/RELEASE_NOTES", 
  "revision": 20170424073254, 
  "schema_version": {
    "no_update": false, 
    "url": "https://dl.google.com/dl/cloudsdk/channels/rapid/google-cloud-sdk.tar.gz", 
    "version": 3
  }, 
  "version": "153.0.0"
}