{
  "config_suffix": "", 
  "disable_updater": false, 
  "disable_usage_reporting": false, 
  "documentation_url": "https://cloud.google.com/sdk/", 
  "release_channel": "rapid", 
  "release_notes_url": "https://cloud.google.com/sdk/release_notes", 
  "revision": 20170424073254, 
  "snapshot_schema_version": 3, 
  "snapshot_url": "https://dl.google.com/dl/cloudsdk/channels/rapid/components-2.json", 
  "user_agent": "google-cloud-sdk", 
  "version": "153.0.0"
}